%!PS-Adobe-3.0 EPSF-3.0
%%Title: fig/util/instances_utilization.eps
%%Creator: matplotlib version 3.0.3, http://matplotlib.org/
%%CreationDate: Sun May 12 20:12:37 2019
%%Orientation: portrait
%%BoundingBox: 75 223 536 568
%%EndComments
%%BeginProlog
/mpldict 8 dict def
mpldict begin
/m { moveto } bind def
/l { lineto } bind def
/r { rlineto } bind def
/c { curveto } bind def
/cl { closepath } bind def
/box {
m
1 index 0 r
0 exch r
neg 0 r
cl
} bind def
/clipbox {
box
clip
newpath
} bind def
%!PS-Adobe-3.0 Resource-Font
%%Title: DejaVu Sans
%%Copyright: Copyright (c) 2003 by Bitstream, Inc. All Rights Reserved. Copyright (c) 2006 by Tavmjong Bah. All Rights Reserved. DejaVu changes are in public domain 
%%Creator: Converted from TrueType to type 3 by PPR
25 dict begin
/_d{bind def}bind def
/_m{moveto}_d
/_l{lineto}_d
/_cl{closepath eofill}_d
/_c{curveto}_d
/_sc{7 -1 roll{setcachedevice}{pop pop pop pop pop pop}ifelse}_d
/_e{exec}_d
/FontName /DejaVuSans def
/PaintType 0 def
/FontMatrix[.001 0 0 .001 0 0]def
/FontBBox[-1021 -463 1793 1232]def
/FontType 3 def
/Encoding [ /space /hyphen /period /zero /one /two /three /four /five /six /seven /eight /nine /L /N /U /underscore /a /b /c /e /f /g /h /i /k /l /m /n /o /r /s /t /u /v /x /z ] def
/FontInfo 10 dict dup begin
/FamilyName (DejaVu Sans) def
/FullName (DejaVu Sans) def
/Notice (Copyright (c) 2003 by Bitstream, Inc. All Rights Reserved. Copyright (c) 2006 by Tavmjong Bah. All Rights Reserved. DejaVu changes are in public domain ) def
/Weight (Book) def
/Version (Version 2.35) def
/ItalicAngle 0.0 def
/isFixedPitch false def
/UnderlinePosition -130 def
/UnderlineThickness 90 def
end readonly def
/CharStrings 38 dict dup begin
/.notdef 0 def
/space{318 0 0 0 0 0 _sc
}_d
/hyphen{361 0 49 234 312 314 _sc
49 314 _m
312 314 _l
312 234 _l
49 234 _l
49 314 _l
_cl}_d
/period{318 0 107 0 210 124 _sc
107 124 _m
210 124 _l
210 0 _l
107 0 _l
107 124 _l
_cl}_d
/zero{636 0 66 -13 570 742 _sc
318 664 _m
267 664 229 639 203 589 _c
177 539 165 464 165 364 _c
165 264 177 189 203 139 _c
229 89 267 64 318 64 _c
369 64 407 89 433 139 _c
458 189 471 264 471 364 _c
471 464 458 539 433 589 _c
407 639 369 664 318 664 _c
318 742 _m
399 742 461 709 505 645 _c
548 580 570 486 570 364 _c
570 241 548 147 505 83 _c
461 19 399 -13 318 -13 _c
236 -13 173 19 130 83 _c
87 147 66 241 66 364 _c
66 486 87 580 130 645 _c
173 709 236 742 318 742 _c
_cl}_d
/one{636 0 110 0 544 729 _sc
124 83 _m
285 83 _l
285 639 _l
110 604 _l
110 694 _l
284 729 _l
383 729 _l
383 83 _l
544 83 _l
544 0 _l
124 0 _l
124 83 _l
_cl}_d
/two{{636 0 73 0 536 742 _sc
192 83 _m
536 83 _l
536 0 _l
73 0 _l
73 83 _l
110 121 161 173 226 239 _c
290 304 331 346 348 365 _c
380 400 402 430 414 455 _c
426 479 433 504 433 528 _c
433 566 419 598 392 622 _c
365 646 330 659 286 659 _c
255 659 222 653 188 643 _c
154 632 117 616 78 594 _c
78 694 _l
118 710 155 722 189 730 _c
223 738 255 742 284 742 _c
}_e{359 742 419 723 464 685 _c
509 647 532 597 532 534 _c
532 504 526 475 515 449 _c
504 422 484 390 454 354 _c
446 344 420 317 376 272 _c
332 227 271 164 192 83 _c
_cl}_e}_d
/three{{636 0 76 -13 556 742 _sc
406 393 _m
453 383 490 362 516 330 _c
542 298 556 258 556 212 _c
556 140 531 84 482 45 _c
432 6 362 -13 271 -13 _c
240 -13 208 -10 176 -4 _c
144 1 110 10 76 22 _c
76 117 _l
103 101 133 89 166 81 _c
198 73 232 69 268 69 _c
330 69 377 81 409 105 _c
441 129 458 165 458 212 _c
458 254 443 288 413 312 _c
383 336 341 349 287 349 _c
}_e{202 349 _l
202 430 _l
291 430 _l
339 430 376 439 402 459 _c
428 478 441 506 441 543 _c
441 580 427 609 401 629 _c
374 649 336 659 287 659 _c
260 659 231 656 200 650 _c
169 644 135 635 98 623 _c
98 711 _l
135 721 170 729 203 734 _c
235 739 266 742 296 742 _c
370 742 429 725 473 691 _c
517 657 539 611 539 553 _c
539 513 527 479 504 451 _c
481 423 448 403 406 393 _c
_cl}_e}_d
/four{636 0 49 0 580 729 _sc
378 643 _m
129 254 _l
378 254 _l
378 643 _l
352 729 _m
476 729 _l
476 254 _l
580 254 _l
580 172 _l
476 172 _l
476 0 _l
378 0 _l
378 172 _l
49 172 _l
49 267 _l
352 729 _l
_cl}_d
/five{{636 0 77 -13 549 729 _sc
108 729 _m
495 729 _l
495 646 _l
198 646 _l
198 467 _l
212 472 227 476 241 478 _c
255 480 270 482 284 482 _c
365 482 429 459 477 415 _c
525 370 549 310 549 234 _c
549 155 524 94 475 51 _c
426 8 357 -13 269 -13 _c
238 -13 207 -10 175 -6 _c
143 -1 111 6 77 17 _c
77 116 _l
106 100 136 88 168 80 _c
199 72 232 69 267 69 _c
}_e{323 69 368 83 401 113 _c
433 143 450 183 450 234 _c
450 284 433 324 401 354 _c
368 384 323 399 267 399 _c
241 399 214 396 188 390 _c
162 384 135 375 108 363 _c
108 729 _l
_cl}_e}_d
/six{{636 0 70 -13 573 742 _sc
330 404 _m
286 404 251 388 225 358 _c
199 328 186 286 186 234 _c
186 181 199 139 225 109 _c
251 79 286 64 330 64 _c
374 64 409 79 435 109 _c
461 139 474 181 474 234 _c
474 286 461 328 435 358 _c
409 388 374 404 330 404 _c
526 713 _m
526 623 _l
501 635 476 644 451 650 _c
425 656 400 659 376 659 _c
310 659 260 637 226 593 _c
}_e{192 549 172 482 168 394 _c
187 422 211 444 240 459 _c
269 474 301 482 336 482 _c
409 482 467 459 509 415 _c
551 371 573 310 573 234 _c
573 159 550 99 506 54 _c
462 9 403 -13 330 -13 _c
246 -13 181 19 137 83 _c
92 147 70 241 70 364 _c
70 479 97 571 152 639 _c
206 707 280 742 372 742 _c
396 742 421 739 447 735 _c
472 730 498 723 526 713 _c
_cl}_e}_d
/seven{636 0 82 0 551 729 _sc
82 729 _m
551 729 _l
551 687 _l
286 0 _l
183 0 _l
432 646 _l
82 646 _l
82 729 _l
_cl}_d
/eight{{636 0 68 -13 568 742 _sc
318 346 _m
271 346 234 333 207 308 _c
180 283 167 249 167 205 _c
167 161 180 126 207 101 _c
234 76 271 64 318 64 _c
364 64 401 76 428 102 _c
455 127 469 161 469 205 _c
469 249 455 283 429 308 _c
402 333 365 346 318 346 _c
219 388 _m
177 398 144 418 120 447 _c
96 476 85 511 85 553 _c
85 611 105 657 147 691 _c
188 725 245 742 318 742 _c
}_e{390 742 447 725 489 691 _c
530 657 551 611 551 553 _c
551 511 539 476 515 447 _c
491 418 459 398 417 388 _c
464 377 501 355 528 323 _c
554 291 568 251 568 205 _c
568 134 546 80 503 43 _c
459 5 398 -13 318 -13 _c
237 -13 175 5 132 43 _c
89 80 68 134 68 205 _c
68 251 81 291 108 323 _c
134 355 171 377 219 388 _c
183 544 _m
183 506 194 476 218 455 _c
}_e{242 434 275 424 318 424 _c
360 424 393 434 417 455 _c
441 476 453 506 453 544 _c
453 582 441 611 417 632 _c
393 653 360 664 318 664 _c
275 664 242 653 218 632 _c
194 611 183 582 183 544 _c
_cl}_e}_d
/nine{{636 0 63 -13 566 742 _sc
110 15 _m
110 105 _l
134 93 159 84 185 78 _c
210 72 235 69 260 69 _c
324 69 374 90 408 134 _c
442 178 462 244 468 334 _c
448 306 424 284 396 269 _c
367 254 335 247 300 247 _c
226 247 168 269 126 313 _c
84 357 63 417 63 494 _c
63 568 85 628 129 674 _c
173 719 232 742 306 742 _c
390 742 455 709 499 645 _c
543 580 566 486 566 364 _c
}_e{566 248 538 157 484 89 _c
429 21 356 -13 264 -13 _c
239 -13 214 -10 189 -6 _c
163 -2 137 5 110 15 _c
306 324 _m
350 324 385 339 411 369 _c
437 399 450 441 450 494 _c
450 546 437 588 411 618 _c
385 648 350 664 306 664 _c
262 664 227 648 201 618 _c
175 588 162 546 162 494 _c
162 441 175 399 201 369 _c
227 339 262 324 306 324 _c
_cl}_e}_d
/L{557 0 98 0 552 729 _sc
98 729 _m
197 729 _l
197 83 _l
552 83 _l
552 0 _l
98 0 _l
98 729 _l
_cl}_d
/N{748 0 98 0 650 729 _sc
98 729 _m
231 729 _l
554 119 _l
554 729 _l
650 729 _l
650 0 _l
517 0 _l
194 610 _l
194 0 _l
98 0 _l
98 729 _l
_cl}_d
/U{732 0 87 -13 645 729 _sc
87 729 _m
186 729 _l
186 286 _l
186 208 200 151 228 117 _c
256 83 302 66 366 66 _c
429 66 475 83 503 117 _c
531 151 546 208 546 286 _c
546 729 _l
645 729 _l
645 274 _l
645 178 621 107 574 59 _c
527 11 458 -13 366 -13 _c
274 -13 204 11 157 59 _c
110 107 87 178 87 274 _c
87 729 _l
_cl}_d
/underscore{500 0 -9 -235 510 -165 _sc
510 -165 _m
510 -235 _l
-9 -235 _l
-9 -165 _l
510 -165 _l
_cl}_d
/a{{613 0 60 -13 522 560 _sc
343 275 _m
270 275 220 266 192 250 _c
164 233 150 205 150 165 _c
150 133 160 107 181 89 _c
202 70 231 61 267 61 _c
317 61 357 78 387 114 _c
417 149 432 196 432 255 _c
432 275 _l
343 275 _l
522 312 _m
522 0 _l
432 0 _l
432 83 _l
411 49 385 25 355 10 _c
325 -5 287 -13 243 -13 _c
187 -13 142 2 109 33 _c
76 64 60 106 60 159 _c
}_e{60 220 80 266 122 298 _c
163 329 224 345 306 345 _c
432 345 _l
432 354 _l
432 395 418 427 391 450 _c
364 472 326 484 277 484 _c
245 484 215 480 185 472 _c
155 464 127 453 100 439 _c
100 522 _l
132 534 164 544 195 550 _c
226 556 256 560 286 560 _c
365 560 424 539 463 498 _c
502 457 522 395 522 312 _c
_cl}_e}_d
/b{{635 0 91 -13 580 760 _sc
487 273 _m
487 339 473 390 446 428 _c
418 466 381 485 334 485 _c
286 485 249 466 222 428 _c
194 390 181 339 181 273 _c
181 207 194 155 222 117 _c
249 79 286 61 334 61 _c
381 61 418 79 446 117 _c
473 155 487 207 487 273 _c
181 464 _m
199 496 223 520 252 536 _c
281 552 316 560 356 560 _c
422 560 476 533 518 481 _c
559 428 580 359 580 273 _c
}_e{580 187 559 117 518 65 _c
476 13 422 -13 356 -13 _c
316 -13 281 -5 252 10 _c
223 25 199 49 181 82 _c
181 0 _l
91 0 _l
91 760 _l
181 760 _l
181 464 _l
_cl}_e}_d
/c{{550 0 55 -13 488 560 _sc
488 526 _m
488 442 _l
462 456 437 466 411 473 _c
385 480 360 484 334 484 _c
276 484 230 465 198 428 _c
166 391 150 339 150 273 _c
150 206 166 154 198 117 _c
230 80 276 62 334 62 _c
360 62 385 65 411 72 _c
437 79 462 90 488 104 _c
488 21 _l
462 9 436 0 410 -5 _c
383 -10 354 -13 324 -13 _c
242 -13 176 12 128 64 _c
}_e{79 115 55 185 55 273 _c
55 362 79 432 128 483 _c
177 534 244 560 330 560 _c
358 560 385 557 411 551 _c
437 545 463 537 488 526 _c
_cl}_e}_d
/e{{615 0 55 -13 562 560 _sc
562 296 _m
562 252 _l
149 252 _l
153 190 171 142 205 110 _c
238 78 284 62 344 62 _c
378 62 412 66 444 74 _c
476 82 509 95 541 113 _c
541 28 _l
509 14 476 3 442 -3 _c
408 -9 373 -13 339 -13 _c
251 -13 182 12 131 62 _c
80 112 55 181 55 268 _c
55 357 79 428 127 481 _c
175 533 241 560 323 560 _c
397 560 455 536 498 489 _c
}_e{540 441 562 377 562 296 _c
472 322 _m
471 371 457 410 431 440 _c
404 469 368 484 324 484 _c
274 484 234 469 204 441 _c
174 413 156 373 152 322 _c
472 322 _l
_cl}_e}_d
/f{352 0 23 0 371 760 _sc
371 760 _m
371 685 _l
285 685 _l
253 685 230 678 218 665 _c
205 652 199 629 199 595 _c
199 547 _l
347 547 _l
347 477 _l
199 477 _l
199 0 _l
109 0 _l
109 477 _l
23 477 _l
23 547 _l
109 547 _l
109 585 _l
109 645 123 690 151 718 _c
179 746 224 760 286 760 _c
371 760 _l
_cl}_d
/g{{635 0 55 -207 544 560 _sc
454 280 _m
454 344 440 395 414 431 _c
387 467 349 485 301 485 _c
253 485 215 467 188 431 _c
161 395 148 344 148 280 _c
148 215 161 165 188 129 _c
215 93 253 75 301 75 _c
349 75 387 93 414 129 _c
440 165 454 215 454 280 _c
544 68 _m
544 -24 523 -93 482 -139 _c
440 -184 377 -207 292 -207 _c
260 -207 231 -204 203 -200 _c
175 -195 147 -188 121 -178 _c
}_e{121 -91 _l
147 -105 173 -115 199 -122 _c
225 -129 251 -133 278 -133 _c
336 -133 380 -117 410 -87 _c
439 -56 454 -10 454 52 _c
454 96 _l
435 64 411 40 382 24 _c
353 8 319 0 279 0 _c
211 0 157 25 116 76 _c
75 127 55 195 55 280 _c
55 364 75 432 116 483 _c
157 534 211 560 279 560 _c
319 560 353 552 382 536 _c
411 520 435 496 454 464 _c
454 547 _l
544 547 _l
}_e{544 68 _l
_cl}_e}_d
/h{634 0 91 0 549 760 _sc
549 330 _m
549 0 _l
459 0 _l
459 327 _l
459 379 448 417 428 443 _c
408 469 378 482 338 482 _c
289 482 251 466 223 435 _c
195 404 181 362 181 309 _c
181 0 _l
91 0 _l
91 760 _l
181 760 _l
181 462 _l
202 494 227 519 257 535 _c
286 551 320 560 358 560 _c
420 560 468 540 500 501 _c
532 462 549 405 549 330 _c
_cl}_d
/i{278 0 94 0 184 760 _sc
94 547 _m
184 547 _l
184 0 _l
94 0 _l
94 547 _l
94 760 _m
184 760 _l
184 646 _l
94 646 _l
94 760 _l
_cl}_d
/k{579 0 91 0 576 760 _sc
91 760 _m
181 760 _l
181 311 _l
449 547 _l
564 547 _l
274 291 _l
576 0 _l
459 0 _l
181 267 _l
181 0 _l
91 0 _l
91 760 _l
_cl}_d
/l{278 0 94 0 184 760 _sc
94 760 _m
184 760 _l
184 0 _l
94 0 _l
94 760 _l
_cl}_d
/m{{974 0 91 0 889 560 _sc
520 442 _m
542 482 569 511 600 531 _c
631 550 668 560 711 560 _c
767 560 811 540 842 500 _c
873 460 889 403 889 330 _c
889 0 _l
799 0 _l
799 327 _l
799 379 789 418 771 444 _c
752 469 724 482 686 482 _c
639 482 602 466 575 435 _c
548 404 535 362 535 309 _c
535 0 _l
445 0 _l
445 327 _l
445 379 435 418 417 444 _c
398 469 369 482 331 482 _c
}_e{285 482 248 466 221 435 _c
194 404 181 362 181 309 _c
181 0 _l
91 0 _l
91 547 _l
181 547 _l
181 462 _l
201 495 226 520 255 536 _c
283 552 317 560 357 560 _c
397 560 430 550 458 530 _c
486 510 506 480 520 442 _c
_cl}_e}_d
/n{634 0 91 0 549 560 _sc
549 330 _m
549 0 _l
459 0 _l
459 327 _l
459 379 448 417 428 443 _c
408 469 378 482 338 482 _c
289 482 251 466 223 435 _c
195 404 181 362 181 309 _c
181 0 _l
91 0 _l
91 547 _l
181 547 _l
181 462 _l
202 494 227 519 257 535 _c
286 551 320 560 358 560 _c
420 560 468 540 500 501 _c
532 462 549 405 549 330 _c
_cl}_d
/o{612 0 55 -13 557 560 _sc
306 484 _m
258 484 220 465 192 427 _c
164 389 150 338 150 273 _c
150 207 163 156 191 118 _c
219 80 257 62 306 62 _c
354 62 392 80 420 118 _c
448 156 462 207 462 273 _c
462 337 448 389 420 427 _c
392 465 354 484 306 484 _c
306 560 _m
384 560 445 534 490 484 _c
534 433 557 363 557 273 _c
557 183 534 113 490 63 _c
445 12 384 -13 306 -13 _c
227 -13 165 12 121 63 _c
77 113 55 183 55 273 _c
55 363 77 433 121 484 _c
165 534 227 560 306 560 _c
_cl}_d
/r{411 0 91 0 411 560 _sc
411 463 _m
401 469 390 473 378 476 _c
366 478 353 480 339 480 _c
288 480 249 463 222 430 _c
194 397 181 350 181 288 _c
181 0 _l
91 0 _l
91 547 _l
181 547 _l
181 462 _l
199 495 224 520 254 536 _c
284 552 321 560 365 560 _c
371 560 378 559 386 559 _c
393 558 401 557 411 555 _c
411 463 _l
_cl}_d
/s{{521 0 54 -13 472 560 _sc
443 531 _m
443 446 _l
417 458 391 468 364 475 _c
336 481 308 485 279 485 _c
234 485 200 478 178 464 _c
156 450 145 430 145 403 _c
145 382 153 366 169 354 _c
185 342 217 330 265 320 _c
296 313 _l
360 299 405 279 432 255 _c
458 230 472 195 472 151 _c
472 100 452 60 412 31 _c
372 1 316 -13 246 -13 _c
216 -13 186 -10 154 -5 _c
}_e{122 0 89 8 54 20 _c
54 113 _l
87 95 120 82 152 74 _c
184 65 216 61 248 61 _c
290 61 323 68 346 82 _c
368 96 380 117 380 144 _c
380 168 371 187 355 200 _c
339 213 303 226 247 238 _c
216 245 _l
160 257 119 275 95 299 _c
70 323 58 356 58 399 _c
58 450 76 490 112 518 _c
148 546 200 560 268 560 _c
301 560 332 557 362 552 _c
391 547 418 540 443 531 _c
}_e{_cl}_e}_d
/t{392 0 27 0 368 702 _sc
183 702 _m
183 547 _l
368 547 _l
368 477 _l
183 477 _l
183 180 _l
183 135 189 106 201 94 _c
213 81 238 75 276 75 _c
368 75 _l
368 0 _l
276 0 _l
206 0 158 13 132 39 _c
106 65 93 112 93 180 _c
93 477 _l
27 477 _l
27 547 _l
93 547 _l
93 702 _l
183 702 _l
_cl}_d
/u{634 0 85 -13 543 560 _sc
85 216 _m
85 547 _l
175 547 _l
175 219 _l
175 167 185 129 205 103 _c
225 77 255 64 296 64 _c
344 64 383 79 411 110 _c
439 141 453 183 453 237 _c
453 547 _l
543 547 _l
543 0 _l
453 0 _l
453 84 _l
431 50 405 26 377 10 _c
348 -5 315 -13 277 -13 _c
214 -13 166 6 134 45 _c
101 83 85 140 85 216 _c
311 560 _m
311 560 _l
_cl}_d
/v{592 0 30 0 562 547 _sc
30 547 _m
125 547 _l
296 88 _l
467 547 _l
562 547 _l
357 0 _l
235 0 _l
30 547 _l
_cl}_d
/x{592 0 29 0 559 547 _sc
549 547 _m
351 281 _l
559 0 _l
453 0 _l
294 215 _l
135 0 _l
29 0 _l
241 286 _l
47 547 _l
153 547 _l
298 352 _l
443 547 _l
549 547 _l
_cl}_d
/z{525 0 43 0 482 547 _sc
55 547 _m
482 547 _l
482 465 _l
144 72 _l
482 72 _l
482 0 _l
43 0 _l
43 82 _l
381 475 _l
55 475 _l
55 547 _l
_cl}_d
end readonly def

/BuildGlyph
 {exch begin
 CharStrings exch
 2 copy known not{pop /.notdef}if
 true 3 1 roll get exec
 end}_d

/BuildChar {
 1 index /Encoding get exch get
 1 index /BuildGlyph get exec
}_d

FontName currentdict end definefont pop
end
%%EndProlog
mpldict begin
75.6 223.2 translate
460.8 345.6 0 0 clipbox
gsave
0 0 m
460.8 0 l
460.8 345.6 l
0 345.6 l
cl
1.000 setgray
fill
grestore
gsave
89.21 125.57 m
447.48 125.57 l
447.48 315.12 l
89.21 315.12 l
cl
1.000 setgray
fill
grestore
gsave
358.3 189.5 89.21 125.6 clipbox
97.863865 125.57 m
112.575435 125.57 l
112.575435 306.09381 l
97.863865 306.09381 l
cl
0.122 0.467 0.706 setrgbcolor
fill
grestore
gsave
358.3 189.5 89.21 125.6 clipbox
132.479324 125.57 m
147.190894 125.57 l
147.190894 280.739342 l
132.479324 280.739342 l
cl
0.122 0.467 0.706 setrgbcolor
fill
grestore
gsave
358.3 189.5 89.21 125.6 clipbox
167.094783 125.57 m
181.806353 125.57 l
181.806353 213.803547 l
167.094783 213.803547 l
cl
0.122 0.467 0.706 setrgbcolor
fill
grestore
gsave
358.3 189.5 89.21 125.6 clipbox
201.710242 125.57 m
216.421812 125.57 l
216.421812 185.406544 l
201.710242 185.406544 l
cl
0.122 0.467 0.706 setrgbcolor
fill
grestore
gsave
358.3 189.5 89.21 125.6 clipbox
236.3257 125.57 m
251.037271 125.57 l
251.037271 158.023719 l
236.3257 158.023719 l
cl
0.122 0.467 0.706 setrgbcolor
fill
grestore
gsave
358.3 189.5 89.21 125.6 clipbox
270.941159 125.57 m
285.652729 125.57 l
285.652729 144.839395 l
270.941159 144.839395 l
cl
0.122 0.467 0.706 setrgbcolor
fill
grestore
gsave
358.3 189.5 89.21 125.6 clipbox
305.556618 125.57 m
320.268188 125.57 l
320.268188 130.640894 l
305.556618 130.640894 l
cl
0.122 0.467 0.706 setrgbcolor
fill
grestore
gsave
358.3 189.5 89.21 125.6 clipbox
340.172077 125.57 m
354.883647 125.57 l
354.883647 127.598357 l
340.172077 127.598357 l
cl
0.122 0.467 0.706 setrgbcolor
fill
grestore
gsave
358.3 189.5 89.21 125.6 clipbox
374.787536 125.57 m
389.499106 125.57 l
389.499106 127.598357 l
374.787536 127.598357 l
cl
0.122 0.467 0.706 setrgbcolor
fill
grestore
gsave
358.3 189.5 89.21 125.6 clipbox
409.402995 125.57 m
424.114565 125.57 l
424.114565 125.57 l
409.402995 125.57 l
cl
0.122 0.467 0.706 setrgbcolor
fill
grestore
gsave
358.3 189.5 89.21 125.6 clipbox
112.575435 125.57 m
127.287005 125.57 l
127.287005 150.924468 l
112.575435 150.924468 l
cl
1.000 0.498 0.055 setrgbcolor
fill
grestore
gsave
358.3 189.5 89.21 125.6 clipbox
147.190894 125.57 m
161.902464 125.57 l
161.902464 229.016228 l
147.190894 229.016228 l
cl
1.000 0.498 0.055 setrgbcolor
fill
grestore
gsave
358.3 189.5 89.21 125.6 clipbox
181.806353 125.57 m
196.517923 125.57 l
196.517923 254.370696 l
181.806353 254.370696 l
cl
1.000 0.498 0.055 setrgbcolor
fill
grestore
gsave
358.3 189.5 89.21 125.6 clipbox
216.421812 125.57 m
231.133382 125.57 l
231.133382 226.987871 l
216.421812 226.987871 l
cl
1.000 0.498 0.055 setrgbcolor
fill
grestore
gsave
358.3 189.5 89.21 125.6 clipbox
251.037271 125.57 m
265.748841 125.57 l
265.748841 200.619224 l
251.037271 200.619224 l
cl
1.000 0.498 0.055 setrgbcolor
fill
grestore
gsave
358.3 189.5 89.21 125.6 clipbox
285.652729 125.57 m
300.3643 125.57 l
300.3643 189.463258 l
285.652729 189.463258 l
cl
1.000 0.498 0.055 setrgbcolor
fill
grestore
gsave
358.3 189.5 89.21 125.6 clipbox
320.268188 125.57 m
334.979758 125.57 l
334.979758 142.811038 l
320.268188 142.811038 l
cl
1.000 0.498 0.055 setrgbcolor
fill
grestore
gsave
358.3 189.5 89.21 125.6 clipbox
354.883647 125.57 m
369.595217 125.57 l
369.595217 138.754323 l
354.883647 138.754323 l
cl
1.000 0.498 0.055 setrgbcolor
fill
grestore
gsave
358.3 189.5 89.21 125.6 clipbox
389.499106 125.57 m
404.210676 125.57 l
404.210676 140.782681 l
389.499106 140.782681 l
cl
1.000 0.498 0.055 setrgbcolor
fill
grestore
gsave
358.3 189.5 89.21 125.6 clipbox
424.114565 125.57 m
438.826135 125.57 l
438.826135 126.584179 l
424.114565 126.584179 l
cl
1.000 0.498 0.055 setrgbcolor
fill
grestore
0.800 setlinewidth
1 setlinejoin
0 setlinecap
[] 0 setdash
0.000 setgray
gsave
/o {
gsave
newpath
translate
0.8 setlinewidth
1 setlinejoin
0 setlinecap
0 0 m
0 -3.5 l

gsave
0.000 setgray
fill
grestore
stroke
grestore
} bind def
112.575 125.57 o
grestore
/DejaVuSans findfont
16.000 scalefont
setfont
gsave
116.989497 31.288750 translate
90.000000 rotate
0.000000 0.000000 m /zero glyphshow
10.179688 0.000000 m /period glyphshow
15.265625 0.000000 m /zero glyphshow
25.445312 0.000000 m /zero glyphshow
35.625000 0.000000 m /space glyphshow
40.710938 0.000000 m /hyphen glyphshow
46.484375 0.000000 m /space glyphshow
51.570312 0.000000 m /zero glyphshow
61.750000 0.000000 m /period glyphshow
66.835938 0.000000 m /one glyphshow
77.015625 0.000000 m /zero glyphshow
grestore
gsave
/o {
gsave
newpath
translate
0.8 setlinewidth
1 setlinejoin
0 setlinecap
0 0 m
0 -3.5 l

gsave
0.000 setgray
fill
grestore
stroke
grestore
} bind def
147.191 125.57 o
grestore
gsave
151.604956 31.288750 translate
90.000000 rotate
0.000000 0.000000 m /zero glyphshow
10.179688 0.000000 m /period glyphshow
15.265625 0.000000 m /one glyphshow
25.445312 0.000000 m /zero glyphshow
35.625000 0.000000 m /space glyphshow
40.710938 0.000000 m /hyphen glyphshow
46.484375 0.000000 m /space glyphshow
51.570312 0.000000 m /zero glyphshow
61.750000 0.000000 m /period glyphshow
66.835938 0.000000 m /two glyphshow
77.015625 0.000000 m /zero glyphshow
grestore
gsave
/o {
gsave
newpath
translate
0.8 setlinewidth
1 setlinejoin
0 setlinecap
0 0 m
0 -3.5 l

gsave
0.000 setgray
fill
grestore
stroke
grestore
} bind def
181.806 125.57 o
grestore
gsave
186.220415 31.288750 translate
90.000000 rotate
0.000000 0.000000 m /zero glyphshow
10.179688 0.000000 m /period glyphshow
15.265625 0.000000 m /two glyphshow
25.445312 0.000000 m /zero glyphshow
35.625000 0.000000 m /space glyphshow
40.710938 0.000000 m /hyphen glyphshow
46.484375 0.000000 m /space glyphshow
51.570312 0.000000 m /zero glyphshow
61.750000 0.000000 m /period glyphshow
66.835938 0.000000 m /three glyphshow
77.015625 0.000000 m /zero glyphshow
grestore
gsave
/o {
gsave
newpath
translate
0.8 setlinewidth
1 setlinejoin
0 setlinecap
0 0 m
0 -3.5 l

gsave
0.000 setgray
fill
grestore
stroke
grestore
} bind def
216.422 125.57 o
grestore
gsave
220.835874 31.288750 translate
90.000000 rotate
0.000000 0.000000 m /zero glyphshow
10.179688 0.000000 m /period glyphshow
15.265625 0.000000 m /three glyphshow
25.445312 0.000000 m /zero glyphshow
35.625000 0.000000 m /space glyphshow
40.710938 0.000000 m /hyphen glyphshow
46.484375 0.000000 m /space glyphshow
51.570312 0.000000 m /zero glyphshow
61.750000 0.000000 m /period glyphshow
66.835938 0.000000 m /four glyphshow
77.015625 0.000000 m /zero glyphshow
grestore
gsave
/o {
gsave
newpath
translate
0.8 setlinewidth
1 setlinejoin
0 setlinecap
0 0 m
0 -3.5 l

gsave
0.000 setgray
fill
grestore
stroke
grestore
} bind def
251.037 125.57 o
grestore
gsave
255.451333 31.288750 translate
90.000000 rotate
0.000000 0.000000 m /zero glyphshow
10.179688 0.000000 m /period glyphshow
15.265625 0.000000 m /four glyphshow
25.445312 0.000000 m /zero glyphshow
35.625000 0.000000 m /space glyphshow
40.710938 0.000000 m /hyphen glyphshow
46.484375 0.000000 m /space glyphshow
51.570312 0.000000 m /zero glyphshow
61.750000 0.000000 m /period glyphshow
66.835938 0.000000 m /five glyphshow
77.015625 0.000000 m /zero glyphshow
grestore
gsave
/o {
gsave
newpath
translate
0.8 setlinewidth
1 setlinejoin
0 setlinecap
0 0 m
0 -3.5 l

gsave
0.000 setgray
fill
grestore
stroke
grestore
} bind def
285.653 125.57 o
grestore
gsave
290.066792 31.288750 translate
90.000000 rotate
0.000000 0.000000 m /zero glyphshow
10.179688 0.000000 m /period glyphshow
15.265625 0.000000 m /five glyphshow
25.445312 0.000000 m /zero glyphshow
35.625000 0.000000 m /space glyphshow
40.710938 0.000000 m /hyphen glyphshow
46.484375 0.000000 m /space glyphshow
51.570312 0.000000 m /zero glyphshow
61.750000 0.000000 m /period glyphshow
66.835938 0.000000 m /six glyphshow
77.015625 0.000000 m /zero glyphshow
grestore
gsave
/o {
gsave
newpath
translate
0.8 setlinewidth
1 setlinejoin
0 setlinecap
0 0 m
0 -3.5 l

gsave
0.000 setgray
fill
grestore
stroke
grestore
} bind def
320.268 125.57 o
grestore
gsave
324.682251 31.288750 translate
90.000000 rotate
0.000000 0.000000 m /zero glyphshow
10.179688 0.000000 m /period glyphshow
15.265625 0.000000 m /six glyphshow
25.445312 0.000000 m /zero glyphshow
35.625000 0.000000 m /space glyphshow
40.710938 0.000000 m /hyphen glyphshow
46.484375 0.000000 m /space glyphshow
51.570312 0.000000 m /zero glyphshow
61.750000 0.000000 m /period glyphshow
66.835938 0.000000 m /seven glyphshow
77.015625 0.000000 m /zero glyphshow
grestore
gsave
/o {
gsave
newpath
translate
0.8 setlinewidth
1 setlinejoin
0 setlinecap
0 0 m
0 -3.5 l

gsave
0.000 setgray
fill
grestore
stroke
grestore
} bind def
354.884 125.57 o
grestore
gsave
359.297710 31.288750 translate
90.000000 rotate
0.000000 0.000000 m /zero glyphshow
10.179688 0.000000 m /period glyphshow
15.265625 0.000000 m /seven glyphshow
25.445312 0.000000 m /zero glyphshow
35.625000 0.000000 m /space glyphshow
40.710938 0.000000 m /hyphen glyphshow
46.484375 0.000000 m /space glyphshow
51.570312 0.000000 m /zero glyphshow
61.750000 0.000000 m /period glyphshow
66.835938 0.000000 m /eight glyphshow
77.015625 0.000000 m /zero glyphshow
grestore
gsave
/o {
gsave
newpath
translate
0.8 setlinewidth
1 setlinejoin
0 setlinecap
0 0 m
0 -3.5 l

gsave
0.000 setgray
fill
grestore
stroke
grestore
} bind def
389.499 125.57 o
grestore
gsave
393.913169 31.288750 translate
90.000000 rotate
0.000000 0.000000 m /zero glyphshow
10.179688 0.000000 m /period glyphshow
15.265625 0.000000 m /eight glyphshow
25.445312 0.000000 m /zero glyphshow
35.625000 0.000000 m /space glyphshow
40.710938 0.000000 m /hyphen glyphshow
46.484375 0.000000 m /space glyphshow
51.570312 0.000000 m /zero glyphshow
61.750000 0.000000 m /period glyphshow
66.835938 0.000000 m /nine glyphshow
77.015625 0.000000 m /zero glyphshow
grestore
gsave
/o {
gsave
newpath
translate
0.8 setlinewidth
1 setlinejoin
0 setlinecap
0 0 m
0 -3.5 l

gsave
0.000 setgray
fill
grestore
stroke
grestore
} bind def
424.115 125.57 o
grestore
gsave
428.528628 31.288750 translate
90.000000 rotate
0.000000 0.000000 m /zero glyphshow
10.179688 0.000000 m /period glyphshow
15.265625 0.000000 m /nine glyphshow
25.445312 0.000000 m /zero glyphshow
35.625000 0.000000 m /space glyphshow
40.710938 0.000000 m /hyphen glyphshow
46.484375 0.000000 m /space glyphshow
51.570312 0.000000 m /one glyphshow
61.750000 0.000000 m /period glyphshow
66.835938 0.000000 m /zero glyphshow
77.015625 0.000000 m /zero glyphshow
grestore
gsave
181.399688 15.132500 translate
0.000000 rotate
0.000000 0.000000 m /U glyphshow
11.710938 0.000000 m /t glyphshow
17.984375 0.000000 m /i glyphshow
22.429688 0.000000 m /l glyphshow
26.875000 0.000000 m /i glyphshow
31.320312 0.000000 m /z glyphshow
39.718750 0.000000 m /a glyphshow
49.523438 0.000000 m /t glyphshow
55.796875 0.000000 m /i glyphshow
60.242188 0.000000 m /o glyphshow
70.031250 0.000000 m /n glyphshow
80.171875 0.000000 m /space glyphshow
85.257812 0.000000 m /o glyphshow
95.046875 0.000000 m /f glyphshow
100.679688 0.000000 m /space glyphshow
105.765625 0.000000 m /t glyphshow
112.039062 0.000000 m /h glyphshow
122.179688 0.000000 m /e glyphshow
132.023438 0.000000 m /space glyphshow
137.109375 0.000000 m /l glyphshow
141.554688 0.000000 m /i glyphshow
146.000000 0.000000 m /n glyphshow
156.140625 0.000000 m /k glyphshow
165.406250 0.000000 m /s glyphshow
grestore
gsave
/o {
gsave
newpath
translate
0.8 setlinewidth
1 setlinejoin
0 setlinecap
0 0 m
-3.5 0 l

gsave
0.000 setgray
fill
grestore
stroke
grestore
} bind def
89.21 125.57 o
grestore
gsave
72.022500 119.491875 translate
0.000000 rotate
0.000000 0.000000 m /zero glyphshow
grestore
gsave
/o {
gsave
newpath
translate
0.8 setlinewidth
1 setlinejoin
0 setlinecap
0 0 m
-3.5 0 l

gsave
0.000 setgray
fill
grestore
stroke
grestore
} bind def
89.21 150.924 o
grestore
gsave
41.460000 144.846343 translate
0.000000 rotate
0.000000 0.000000 m /two glyphshow
10.179688 0.000000 m /five glyphshow
20.359375 0.000000 m /zero glyphshow
30.539062 0.000000 m /zero glyphshow
grestore
gsave
/o {
gsave
newpath
translate
0.8 setlinewidth
1 setlinejoin
0 setlinecap
0 0 m
-3.5 0 l

gsave
0.000 setgray
fill
grestore
stroke
grestore
} bind def
89.21 176.279 o
grestore
gsave
41.460000 170.200810 translate
0.000000 rotate
0.000000 0.000000 m /five glyphshow
10.179688 0.000000 m /zero glyphshow
20.359375 0.000000 m /zero glyphshow
30.539062 0.000000 m /zero glyphshow
grestore
gsave
/o {
gsave
newpath
translate
0.8 setlinewidth
1 setlinejoin
0 setlinecap
0 0 m
-3.5 0 l

gsave
0.000 setgray
fill
grestore
stroke
grestore
} bind def
89.21 201.633 o
grestore
gsave
41.460000 195.555278 translate
0.000000 rotate
0.000000 0.000000 m /seven glyphshow
10.179688 0.000000 m /five glyphshow
20.359375 0.000000 m /zero glyphshow
30.539062 0.000000 m /zero glyphshow
grestore
gsave
/o {
gsave
newpath
translate
0.8 setlinewidth
1 setlinejoin
0 setlinecap
0 0 m
-3.5 0 l

gsave
0.000 setgray
fill
grestore
stroke
grestore
} bind def
89.21 226.988 o
grestore
gsave
31.272500 220.909746 translate
0.000000 rotate
0.000000 0.000000 m /one glyphshow
10.179688 0.000000 m /zero glyphshow
20.359375 0.000000 m /zero glyphshow
30.539062 0.000000 m /zero glyphshow
40.718750 0.000000 m /zero glyphshow
grestore
gsave
/o {
gsave
newpath
translate
0.8 setlinewidth
1 setlinejoin
0 setlinecap
0 0 m
-3.5 0 l

gsave
0.000 setgray
fill
grestore
stroke
grestore
} bind def
89.21 252.342 o
grestore
gsave
31.272500 246.264213 translate
0.000000 rotate
0.000000 0.000000 m /one glyphshow
10.179688 0.000000 m /two glyphshow
20.359375 0.000000 m /five glyphshow
30.539062 0.000000 m /zero glyphshow
40.718750 0.000000 m /zero glyphshow
grestore
gsave
/o {
gsave
newpath
translate
0.8 setlinewidth
1 setlinejoin
0 setlinecap
0 0 m
-3.5 0 l

gsave
0.000 setgray
fill
grestore
stroke
grestore
} bind def
89.21 277.697 o
grestore
gsave
31.272500 271.618681 translate
0.000000 rotate
0.000000 0.000000 m /one glyphshow
10.179688 0.000000 m /five glyphshow
20.359375 0.000000 m /zero glyphshow
30.539062 0.000000 m /zero glyphshow
40.718750 0.000000 m /zero glyphshow
grestore
gsave
/o {
gsave
newpath
translate
0.8 setlinewidth
1 setlinejoin
0 setlinecap
0 0 m
-3.5 0 l

gsave
0.000 setgray
fill
grestore
stroke
grestore
} bind def
89.21 303.051 o
grestore
gsave
31.272500 296.973148 translate
0.000000 rotate
0.000000 0.000000 m /one glyphshow
10.179688 0.000000 m /seven glyphshow
20.359375 0.000000 m /five glyphshow
30.539062 0.000000 m /zero glyphshow
40.718750 0.000000 m /zero glyphshow
grestore
gsave
23.944375 137.313750 translate
90.000000 rotate
0.000000 0.000000 m /N glyphshow
11.968750 0.000000 m /u glyphshow
22.109375 0.000000 m /m glyphshow
37.695312 0.000000 m /b glyphshow
47.851562 0.000000 m /e glyphshow
57.695312 0.000000 m /r glyphshow
64.273438 0.000000 m /space glyphshow
69.359375 0.000000 m /o glyphshow
79.148438 0.000000 m /f glyphshow
84.781250 0.000000 m /space glyphshow
89.867188 0.000000 m /i glyphshow
94.312500 0.000000 m /n glyphshow
104.453125 0.000000 m /s glyphshow
112.789062 0.000000 m /t glyphshow
119.062500 0.000000 m /a glyphshow
128.867188 0.000000 m /n glyphshow
139.007812 0.000000 m /c glyphshow
147.804688 0.000000 m /e glyphshow
157.648438 0.000000 m /s glyphshow
grestore
0 setlinejoin
2 setlinecap
[] 0 setdash
gsave
89.21 125.57 m
89.21 315.12 l
stroke
grestore
gsave
447.48 125.57 m
447.48 315.12 l
stroke
grestore
gsave
89.21 125.57 m
447.48 125.57 l
stroke
grestore
gsave
89.21 315.12 m
447.48 315.12 l
stroke
grestore
/DejaVuSans findfont
18.000 scalefont
setfont
gsave
202.837188 321.120000 translate
0.000000 rotate
0.000000 0.000000 m /L glyphshow
10.028320 0.000000 m /i glyphshow
15.029297 0.000000 m /n glyphshow
26.437500 0.000000 m /k glyphshow
36.861328 0.000000 m /space glyphshow
42.583008 0.000000 m /u glyphshow
53.991211 0.000000 m /t glyphshow
61.048828 0.000000 m /i glyphshow
66.049805 0.000000 m /l glyphshow
71.050781 0.000000 m /i glyphshow
76.051758 0.000000 m /z glyphshow
85.500000 0.000000 m /a glyphshow
96.530273 0.000000 m /t glyphshow
103.587891 0.000000 m /i glyphshow
108.588867 0.000000 m /o glyphshow
119.601562 0.000000 m /n glyphshow
grestore
1.000 setlinewidth
0 setlinecap
0.800 setgray
gsave
316.876875 254.445 m
436.28 254.445 l
438.413333 254.445 439.48 255.511667 439.48 257.645 c
439.48 303.92 l
439.48 306.053333 438.413333 307.12 436.28 307.12 c
316.876875 307.12 l
314.743542 307.12 313.676875 306.053333 313.676875 303.92 c
313.676875 257.645 l
313.676875 255.511667 314.743542 254.445 316.876875 254.445 c
cl
gsave
1.000 setgray
fill
grestore
stroke
grestore
gsave
320.076875 288.56375 m
352.076875 288.56375 l
352.076875 299.76375 l
320.076875 299.76375 l
cl
0.122 0.467 0.706 setrgbcolor
fill
grestore
0.000 setgray
/DejaVuSans findfont
16.000 scalefont
setfont
gsave
364.876875 288.563750 translate
0.000000 rotate
0.000000 0.000000 m /a glyphshow
9.804688 0.000000 m /v glyphshow
19.273438 0.000000 m /g glyphshow
29.429688 0.000000 m /underscore glyphshow
37.429688 0.000000 m /u glyphshow
47.570312 0.000000 m /t glyphshow
53.843750 0.000000 m /i glyphshow
58.289062 0.000000 m /l glyphshow
grestore
gsave
320.076875 264.62625 m
352.076875 264.62625 l
352.076875 275.82625 l
320.076875 275.82625 l
cl
1.000 0.498 0.055 setrgbcolor
fill
grestore
gsave
364.876875 264.626250 translate
0.000000 rotate
0.000000 0.000000 m /m glyphshow
15.585938 0.000000 m /a glyphshow
25.390625 0.000000 m /x glyphshow
34.859375 0.000000 m /underscore glyphshow
42.859375 0.000000 m /u glyphshow
53.000000 0.000000 m /t glyphshow
59.273438 0.000000 m /i glyphshow
63.718750 0.000000 m /l glyphshow
grestore

end
showpage
