<?xml version="1.0" encoding="UTF-8" standalone="no"?>
<!-- Created with Inkscape (http://www.inkscape.org/) -->

<svg
   xmlns:dc="http://purl.org/dc/elements/1.1/"
   xmlns:cc="http://creativecommons.org/ns#"
   xmlns:rdf="http://www.w3.org/1999/02/22-rdf-syntax-ns#"
   xmlns:svg="http://www.w3.org/2000/svg"
   xmlns="http://www.w3.org/2000/svg"
   xmlns:sodipodi="http://sodipodi.sourceforge.net/DTD/sodipodi-0.dtd"
   xmlns:inkscape="http://www.inkscape.org/namespaces/inkscape"
   width="210mm"
   height="297mm"
   viewBox="0 0 210 297"
   version="1.1"
   id="svg8"
   inkscape:version="0.92.4 5da689c313, 2019-01-14"
   sodipodi:docname="network_model.svg">
  <defs
     id="defs2">
    <marker
       inkscape:stockid="Arrow1Lend"
       orient="auto"
       refY="0.0"
       refX="0.0"
       id="Arrow1Lend"
       style="overflow:visible;"
       inkscape:isstock="true">
      <path
         id="path4623"
         d="M 0.0,0.0 L 5.0,-5.0 L -12.5,0.0 L 5.0,5.0 L 0.0,0.0 z "
         style="fill-rule:evenodd;stroke:#000000;stroke-width:1pt;stroke-opacity:1;fill:#000000;fill-opacity:1"
         transform="scale(0.8) rotate(180) translate(12.5,0)" />
    </marker>
    <marker
       inkscape:stockid="Arrow1Lstart"
       orient="auto"
       refY="0.0"
       refX="0.0"
       id="marker4904"
       style="overflow:visible"
       inkscape:isstock="true">
      <path
         id="path4902"
         d="M 0.0,0.0 L 5.0,-5.0 L -12.5,0.0 L 5.0,5.0 L 0.0,0.0 z "
         style="fill-rule:evenodd;stroke:#000000;stroke-width:1pt;stroke-opacity:1;fill:#000000;fill-opacity:1"
         transform="scale(0.8) translate(12.5,0)" />
    </marker>
    <marker
       inkscape:stockid="Arrow1Lstart"
       orient="auto"
       refY="0.0"
       refX="0.0"
       id="Arrow1Lstart"
       style="overflow:visible"
       inkscape:isstock="true">
      <path
         id="path4620"
         d="M 0.0,0.0 L 5.0,-5.0 L -12.5,0.0 L 5.0,5.0 L 0.0,0.0 z "
         style="fill-rule:evenodd;stroke:#000000;stroke-width:1pt;stroke-opacity:1;fill:#000000;fill-opacity:1"
         transform="scale(0.8) translate(12.5,0)" />
    </marker>
  </defs>
  <sodipodi:namedview
     id="base"
     pagecolor="#ffffff"
     bordercolor="#666666"
     borderopacity="1.0"
     inkscape:pageopacity="0.0"
     inkscape:pageshadow="2"
     inkscape:zoom="0.74564394"
     inkscape:cx="-28.595695"
     inkscape:cy="561.25984"
     inkscape:document-units="mm"
     inkscape:current-layer="layer1"
     showgrid="false"
     inkscape:window-width="960"
     inkscape:window-height="1020"
     inkscape:window-x="0"
     inkscape:window-y="0"
     inkscape:window-maximized="0" />
  <metadata
     id="metadata5">
    <rdf:RDF>
      <cc:Work
         rdf:about="">
        <dc:format>image/svg+xml</dc:format>
        <dc:type
           rdf:resource="http://purl.org/dc/dcmitype/StillImage" />
        <dc:title></dc:title>
      </cc:Work>
    </rdf:RDF>
  </metadata>
  <g
     inkscape:label="Layer 1"
     inkscape:groupmode="layer"
     id="layer1">
    <rect
       style="fill:#ffffff;fill-opacity:1;stroke:none;stroke-width:0.30000001;stroke-miterlimit:4;stroke-dasharray:none;stroke-opacity:1"
       id="rect5037"
       width="157.19356"
       height="85.516129"
       x="9.6177473"
       y="18.62594" />
    <g
       id="g4604"
       transform="translate(-0.0435501,1.4306503)">
      <circle
         r="10"
         style="fill:#ffffff;fill-opacity:1;stroke:#000000;stroke-width:0.30000001;stroke-miterlimit:4;stroke-dasharray:none;stroke-opacity:1"
         cy="35.41935"
         cx="35.19355"
         id="path10" />
      <text
         id="text4522"
         y="37.432392"
         x="29.986961"
         style="font-style:normal;font-weight:normal;font-size:10.58333302px;line-height:1.25;font-family:sans-serif;letter-spacing:0px;word-spacing:0px;fill:#000000;fill-opacity:1;stroke:none;stroke-width:0.26458332"
         xml:space="preserve"><tspan
           style="stroke-width:0.26458332"
           y="37.432392"
           x="29.986961"
           id="tspan4520"
           sodipodi:role="line">v<tspan
   id="tspan4526"
   style="font-size:64.99999762%;baseline-shift:sub">1</tspan></tspan></text>
    </g>
    <g
       id="g4598"
       transform="translate(124.99695,47.301612)">
      <circle
         r="10"
         style="fill:#ffffff;fill-opacity:1;stroke:#000000;stroke-width:0.30000001;stroke-miterlimit:4;stroke-dasharray:none;stroke-opacity:1"
         cy="14.548388"
         cx="17.032259"
         id="path10-3" />
      <text
         id="text4522-6"
         y="16.561428"
         x="11.825669"
         style="font-style:normal;font-weight:normal;font-size:10.58333302px;line-height:1.25;font-family:sans-serif;letter-spacing:0px;word-spacing:0px;fill:#000000;fill-opacity:1;stroke:none;stroke-width:0.26458332"
         xml:space="preserve"><tspan
           style="stroke-width:0.26458332"
           y="16.561428"
           x="11.825669"
           id="tspan4520-7"
           sodipodi:role="line">v<tspan
   id="tspan4592"
   style="font-size:64.99999762%;baseline-shift:sub">4</tspan></tspan></text>
    </g>
    <g
       id="g4616"
       transform="translate(-8.85,-10.020972)">
      <circle
         r="10"
         style="fill:#ffffff;fill-opacity:1;stroke:#000000;stroke-width:0.30000001;stroke-miterlimit:4;stroke-dasharray:none;stroke-opacity:1"
         cy="96.870972"
         cx="44"
         id="path10-35" />
      <text
         id="text4522-62"
         y="98.88401"
         x="38.793411"
         style="font-style:normal;font-weight:normal;font-size:10.58333302px;line-height:1.25;font-family:sans-serif;letter-spacing:0px;word-spacing:0px;fill:#000000;fill-opacity:1;stroke:none;stroke-width:0.26458332"
         xml:space="preserve"><tspan
           style="stroke-width:0.26458332"
           y="98.88401"
           x="38.793411"
           id="tspan4520-9"
           sodipodi:role="line">v<tspan
   id="tspan4588"
   style="font-size:64.99999762%;baseline-shift:sub">2</tspan></tspan></text>
    </g>
    <g
       id="g4610"
       transform="translate(-37.979044,3.3016144)">
      <circle
         r="10"
         style="fill:#ffffff;fill-opacity:1;stroke:#000000;stroke-width:0.30000001;stroke-miterlimit:4;stroke-dasharray:none;stroke-opacity:1"
         cy="58.548386"
         cx="123.12904"
         id="path10-2" />
      <text
         id="text4522-7"
         y="60.561428"
         x="117.92244"
         style="font-style:normal;font-weight:normal;font-size:10.58333302px;line-height:1.25;font-family:sans-serif;letter-spacing:0px;word-spacing:0px;fill:#000000;fill-opacity:1;stroke:none;stroke-width:0.26458332"
         xml:space="preserve"><tspan
           style="stroke-width:0.26458332"
           y="60.561428"
           x="117.92244"
           id="tspan4520-0"
           sodipodi:role="line">v<tspan
   id="tspan4590"
   style="font-size:64.99999762%;baseline-shift:sub">3</tspan></tspan></text>
    </g>
    <path
       style="fill:none;stroke:#000000;stroke-width:0.26458332px;stroke-linecap:butt;stroke-linejoin:miter;stroke-opacity:1"
       d="M 45.419353,87.290322 76.64516,67.064516 Z"
       id="path4968"
       inkscape:connector-curvature="0" />
    <path
       style="fill:none;stroke:#000000;stroke-width:0.26458332px;stroke-linecap:butt;stroke-linejoin:miter;stroke-opacity:1"
       d="M 44.884006,37.612902 75.754973,57.483869 Z"
       id="path4970"
       inkscape:connector-curvature="0" />
    <path
       style="fill:none;stroke:#000000;stroke-width:0.29266426px;stroke-linecap:butt;stroke-linejoin:miter;stroke-opacity:1"
       d="M 94.741935,62.451612 H 131.64516 Z"
       id="path4972"
       inkscape:connector-curvature="0" />
    <text
       xml:space="preserve"
       style="font-style:normal;font-weight:normal;line-height:1.25;font-family:sans-serif;letter-spacing:0px;word-spacing:0px;baseline-shift:baseline;fill:#000000;fill-opacity:1;stroke:none;stroke-width:0.26458332"
       x="-5.1974006"
       y="94.696487"
       id="text4976"
       transform="rotate(-32.155932)"><tspan
         sodipodi:role="line"
         id="tspan4974"
         x="-5.1974006"
         y="94.696487"
         style="font-size:5.29166651px;baseline-shift:baseline;stroke-width:0.26458332">e<tspan
   style="font-size:64.99999762%;baseline-shift:sub"
   id="tspan4980">2</tspan> = {v<tspan
   style="font-size:64.99999762%;baseline-shift:sub"
   id="tspan4982">2</tspan>, v<tspan
   style="font-size:64.99999762%;baseline-shift:sub"
   id="tspan4984">3</tspan>}</tspan></text>
    <text
       xml:space="preserve"
       style="font-style:normal;font-weight:normal;font-size:12px;line-height:1.25;font-family:sans-serif;letter-spacing:0px;word-spacing:0px;baseline-shift:baseline;fill:#000000;fill-opacity:1;stroke:none;stroke-width:0.26458332"
       x="97.245049"
       y="59.631695"
       id="text4976-6"><tspan
         sodipodi:role="line"
         id="tspan4974-1"
         x="97.245049"
         y="59.631695"
         style="font-size:5.29166651px;baseline-shift:baseline;stroke-width:0.26458332">e<tspan
   style="font-size:64.99999762%;baseline-shift:sub"
   id="tspan5031">3</tspan> = {v<tspan
   style="font-size:64.99999762%;baseline-shift:sub"
   id="tspan5033">3</tspan>, v<tspan
   style="font-size:64.99999762%;baseline-shift:sub"
   id="tspan5035">4</tspan>}</tspan></text>
    <text
       xml:space="preserve"
       style="font-style:normal;font-weight:normal;font-size:12px;line-height:1.25;font-family:sans-serif;letter-spacing:0px;word-spacing:0px;baseline-shift:baseline;fill:#000000;fill-opacity:1;stroke:none;stroke-width:0.26458332"
       x="59.362881"
       y="5.1025205"
       id="text4976-2"
       transform="rotate(32.16923)"><tspan
         sodipodi:role="line"
         id="tspan4974-0"
         x="59.362881"
         y="5.1025205"
         style="font-size:5.29166651px;baseline-shift:baseline;stroke-width:0.26458332">e<tspan
   style="font-size:64.99999762%;baseline-shift:sub"
   id="tspan5027">1</tspan> = {v<tspan
   style="font-size:64.99999762%;baseline-shift:sub"
   id="tspan5029">1</tspan>, v<tspan
   style="font-size:3.43958306px;baseline-shift:sub;stroke-width:0.26458332"
   id="tspan4984-7">3</tspan>}</tspan></text>
  </g>
</svg>
