%!PS-Adobe-3.0 EPSF-3.0
%%Title: fig/scheduled/scheduled_small.eps
%%Creator: matplotlib version 3.0.3, http://matplotlib.org/
%%CreationDate: Sun May 12 20:13:01 2019
%%Orientation: portrait
%%BoundingBox: 75 223 536 568
%%EndComments
%%BeginProlog
/mpldict 8 dict def
mpldict begin
/m { moveto } bind def
/l { lineto } bind def
/r { rlineto } bind def
/c { curveto } bind def
/cl { closepath } bind def
/box {
m
1 index 0 r
0 exch r
neg 0 r
cl
} bind def
/clipbox {
box
clip
newpath
} bind def
%!PS-Adobe-3.0 Resource-Font
%%Title: DejaVu Sans
%%Copyright: Copyright (c) 2003 by Bitstream, Inc. All Rights Reserved. Copyright (c) 2006 by Tavmjong Bah. All Rights Reserved. DejaVu changes are in public domain 
%%Creator: Converted from TrueType to type 3 by PPR
25 dict begin
/_d{bind def}bind def
/_m{moveto}_d
/_l{lineto}_d
/_cl{closepath eofill}_d
/_c{curveto}_d
/_sc{7 -1 roll{setcachedevice}{pop pop pop pop pop pop}ifelse}_d
/_e{exec}_d
/FontName /DejaVuSans def
/PaintType 0 def
/FontMatrix[.001 0 0 .001 0 0]def
/FontBBox[-1021 -463 1793 1232]def
/FontType 3 def
/Encoding [ /space /percent /zero /one /two /four /five /six /seven /eight /B /C /D /E /F /I /J /L /M /N /P /R /S /T /bracketleft /bracketright /underscore /a /b /c /d /e /f /g /h /i /l /m /n /o /p /r /s /t /u /y ] def
/FontInfo 10 dict dup begin
/FamilyName (DejaVu Sans) def
/FullName (DejaVu Sans) def
/Notice (Copyright (c) 2003 by Bitstream, Inc. All Rights Reserved. Copyright (c) 2006 by Tavmjong Bah. All Rights Reserved. DejaVu changes are in public domain ) def
/Weight (Book) def
/Version (Version 2.35) def
/ItalicAngle 0.0 def
/isFixedPitch false def
/UnderlinePosition -130 def
/UnderlineThickness 90 def
end readonly def
/CharStrings 47 dict dup begin
/.notdef 0 def
/space{318 0 0 0 0 0 _sc
}_d
/percent{{950 0 55 -13 895 742 _sc
727 321 _m
699 321 676 309 660 285 _c
644 261 636 227 636 184 _c
636 142 644 108 660 84 _c
676 60 699 48 727 48 _c
755 48 777 60 793 84 _c
809 108 817 142 817 184 _c
817 226 809 260 793 284 _c
777 308 755 321 727 321 _c
727 383 _m
778 383 819 365 849 329 _c
879 293 895 244 895 184 _c
895 123 879 75 849 40 _c
819 4 778 -13 727 -13 _c
}_e{675 -13 633 4 603 40 _c
573 75 558 123 558 184 _c
558 245 573 293 603 329 _c
633 365 675 383 727 383 _c
223 680 _m
195 680 173 667 157 643 _c
141 619 133 586 133 544 _c
133 500 141 467 157 443 _c
173 419 195 407 223 407 _c
251 407 274 419 290 443 _c
306 467 314 500 314 544 _c
314 586 305 619 289 643 _c
273 667 251 680 223 680 _c
664 742 _m
742 742 _l
286 -13 _l
}_e{208 -13 _l
664 742 _l
223 742 _m
274 742 315 724 346 688 _c
376 652 392 604 392 544 _c
392 482 376 434 346 398 _c
316 362 275 345 223 345 _c
171 345 130 362 100 398 _c
70 434 55 482 55 544 _c
55 604 70 652 100 688 _c
130 724 171 742 223 742 _c
_cl}_e}_d
/zero{636 0 66 -13 570 742 _sc
318 664 _m
267 664 229 639 203 589 _c
177 539 165 464 165 364 _c
165 264 177 189 203 139 _c
229 89 267 64 318 64 _c
369 64 407 89 433 139 _c
458 189 471 264 471 364 _c
471 464 458 539 433 589 _c
407 639 369 664 318 664 _c
318 742 _m
399 742 461 709 505 645 _c
548 580 570 486 570 364 _c
570 241 548 147 505 83 _c
461 19 399 -13 318 -13 _c
236 -13 173 19 130 83 _c
87 147 66 241 66 364 _c
66 486 87 580 130 645 _c
173 709 236 742 318 742 _c
_cl}_d
/one{636 0 110 0 544 729 _sc
124 83 _m
285 83 _l
285 639 _l
110 604 _l
110 694 _l
284 729 _l
383 729 _l
383 83 _l
544 83 _l
544 0 _l
124 0 _l
124 83 _l
_cl}_d
/two{{636 0 73 0 536 742 _sc
192 83 _m
536 83 _l
536 0 _l
73 0 _l
73 83 _l
110 121 161 173 226 239 _c
290 304 331 346 348 365 _c
380 400 402 430 414 455 _c
426 479 433 504 433 528 _c
433 566 419 598 392 622 _c
365 646 330 659 286 659 _c
255 659 222 653 188 643 _c
154 632 117 616 78 594 _c
78 694 _l
118 710 155 722 189 730 _c
223 738 255 742 284 742 _c
}_e{359 742 419 723 464 685 _c
509 647 532 597 532 534 _c
532 504 526 475 515 449 _c
504 422 484 390 454 354 _c
446 344 420 317 376 272 _c
332 227 271 164 192 83 _c
_cl}_e}_d
/four{636 0 49 0 580 729 _sc
378 643 _m
129 254 _l
378 254 _l
378 643 _l
352 729 _m
476 729 _l
476 254 _l
580 254 _l
580 172 _l
476 172 _l
476 0 _l
378 0 _l
378 172 _l
49 172 _l
49 267 _l
352 729 _l
_cl}_d
/five{{636 0 77 -13 549 729 _sc
108 729 _m
495 729 _l
495 646 _l
198 646 _l
198 467 _l
212 472 227 476 241 478 _c
255 480 270 482 284 482 _c
365 482 429 459 477 415 _c
525 370 549 310 549 234 _c
549 155 524 94 475 51 _c
426 8 357 -13 269 -13 _c
238 -13 207 -10 175 -6 _c
143 -1 111 6 77 17 _c
77 116 _l
106 100 136 88 168 80 _c
199 72 232 69 267 69 _c
}_e{323 69 368 83 401 113 _c
433 143 450 183 450 234 _c
450 284 433 324 401 354 _c
368 384 323 399 267 399 _c
241 399 214 396 188 390 _c
162 384 135 375 108 363 _c
108 729 _l
_cl}_e}_d
/six{{636 0 70 -13 573 742 _sc
330 404 _m
286 404 251 388 225 358 _c
199 328 186 286 186 234 _c
186 181 199 139 225 109 _c
251 79 286 64 330 64 _c
374 64 409 79 435 109 _c
461 139 474 181 474 234 _c
474 286 461 328 435 358 _c
409 388 374 404 330 404 _c
526 713 _m
526 623 _l
501 635 476 644 451 650 _c
425 656 400 659 376 659 _c
310 659 260 637 226 593 _c
}_e{192 549 172 482 168 394 _c
187 422 211 444 240 459 _c
269 474 301 482 336 482 _c
409 482 467 459 509 415 _c
551 371 573 310 573 234 _c
573 159 550 99 506 54 _c
462 9 403 -13 330 -13 _c
246 -13 181 19 137 83 _c
92 147 70 241 70 364 _c
70 479 97 571 152 639 _c
206 707 280 742 372 742 _c
396 742 421 739 447 735 _c
472 730 498 723 526 713 _c
_cl}_e}_d
/seven{636 0 82 0 551 729 _sc
82 729 _m
551 729 _l
551 687 _l
286 0 _l
183 0 _l
432 646 _l
82 646 _l
82 729 _l
_cl}_d
/eight{{636 0 68 -13 568 742 _sc
318 346 _m
271 346 234 333 207 308 _c
180 283 167 249 167 205 _c
167 161 180 126 207 101 _c
234 76 271 64 318 64 _c
364 64 401 76 428 102 _c
455 127 469 161 469 205 _c
469 249 455 283 429 308 _c
402 333 365 346 318 346 _c
219 388 _m
177 398 144 418 120 447 _c
96 476 85 511 85 553 _c
85 611 105 657 147 691 _c
188 725 245 742 318 742 _c
}_e{390 742 447 725 489 691 _c
530 657 551 611 551 553 _c
551 511 539 476 515 447 _c
491 418 459 398 417 388 _c
464 377 501 355 528 323 _c
554 291 568 251 568 205 _c
568 134 546 80 503 43 _c
459 5 398 -13 318 -13 _c
237 -13 175 5 132 43 _c
89 80 68 134 68 205 _c
68 251 81 291 108 323 _c
134 355 171 377 219 388 _c
183 544 _m
183 506 194 476 218 455 _c
}_e{242 434 275 424 318 424 _c
360 424 393 434 417 455 _c
441 476 453 506 453 544 _c
453 582 441 611 417 632 _c
393 653 360 664 318 664 _c
275 664 242 653 218 632 _c
194 611 183 582 183 544 _c
_cl}_e}_d
/B{{686 0 98 0 615 729 _sc
197 348 _m
197 81 _l
355 81 _l
408 81 447 92 473 114 _c
498 136 511 169 511 215 _c
511 260 498 293 473 315 _c
447 337 408 348 355 348 _c
197 348 _l
197 648 _m
197 428 _l
343 428 _l
391 428 426 437 450 455 _c
474 473 486 500 486 538 _c
486 574 474 602 450 620 _c
426 638 391 648 343 648 _c
197 648 _l
98 729 _m
350 729 _l
}_e{425 729 483 713 524 682 _c
564 650 585 606 585 549 _c
585 504 574 468 553 442 _c
532 416 502 399 462 393 _c
510 382 548 360 575 327 _c
601 294 615 253 615 204 _c
615 138 592 88 548 53 _c
504 17 441 0 360 0 _c
98 0 _l
98 729 _l
_cl}_e}_d
/C{{698 0 56 -13 644 742 _sc
644 673 _m
644 569 _l
610 599 575 622 537 638 _c
499 653 460 661 418 661 _c
334 661 270 635 226 584 _c
182 533 160 460 160 364 _c
160 268 182 194 226 143 _c
270 92 334 67 418 67 _c
460 67 499 74 537 90 _c
575 105 610 128 644 159 _c
644 56 _l
609 32 572 15 534 4 _c
496 -7 455 -13 412 -13 _c
302 -13 215 20 151 87 _c
}_e{87 154 56 246 56 364 _c
56 481 87 573 151 641 _c
215 708 302 742 412 742 _c
456 742 497 736 535 725 _c
573 713 610 696 644 673 _c
_cl}_e}_d
/D{770 0 98 0 711 729 _sc
197 648 _m
197 81 _l
316 81 _l
416 81 490 103 537 149 _c
583 195 607 267 607 365 _c
607 463 583 534 537 580 _c
490 625 416 648 316 648 _c
197 648 _l
98 729 _m
301 729 _l
442 729 546 699 612 641 _c
678 582 711 490 711 365 _c
711 239 677 147 611 88 _c
545 29 441 0 301 0 _c
98 0 _l
98 729 _l
_cl}_d
/E{632 0 98 0 568 729 _sc
98 729 _m
559 729 _l
559 646 _l
197 646 _l
197 430 _l
544 430 _l
544 347 _l
197 347 _l
197 83 _l
568 83 _l
568 0 _l
98 0 _l
98 729 _l
_cl}_d
/F{575 0 98 0 517 729 _sc
98 729 _m
517 729 _l
517 646 _l
197 646 _l
197 431 _l
486 431 _l
486 348 _l
197 348 _l
197 0 _l
98 0 _l
98 729 _l
_cl}_d
/I{295 0 98 0 197 729 _sc
98 729 _m
197 729 _l
197 0 _l
98 0 _l
98 729 _l
_cl}_d
/J{295 0 -51 -199 197 729 _sc
98 729 _m
197 729 _l
197 51 _l
197 -36 180 -99 147 -139 _c
113 -179 60 -199 -13 -199 _c
-51 -199 _l
-51 -116 _l
-20 -116 _l
22 -116 53 -103 71 -79 _c
89 -55 98 -11 98 51 _c
98 729 _l
_cl}_d
/L{557 0 98 0 552 729 _sc
98 729 _m
197 729 _l
197 83 _l
552 83 _l
552 0 _l
98 0 _l
98 729 _l
_cl}_d
/M{863 0 98 0 765 729 _sc
98 729 _m
245 729 _l
431 233 _l
618 729 _l
765 729 _l
765 0 _l
669 0 _l
669 640 _l
481 140 _l
382 140 _l
194 640 _l
194 0 _l
98 0 _l
98 729 _l
_cl}_d
/N{748 0 98 0 650 729 _sc
98 729 _m
231 729 _l
554 119 _l
554 729 _l
650 729 _l
650 0 _l
517 0 _l
194 610 _l
194 0 _l
98 0 _l
98 729 _l
_cl}_d
/P{603 0 98 0 569 729 _sc
197 648 _m
197 374 _l
321 374 _l
367 374 402 385 427 409 _c
452 433 465 467 465 511 _c
465 555 452 588 427 612 _c
402 636 367 648 321 648 _c
197 648 _l
98 729 _m
321 729 _l
402 729 464 710 506 673 _c
548 636 569 582 569 511 _c
569 439 548 384 506 348 _c
464 311 402 293 321 293 _c
197 293 _l
197 0 _l
98 0 _l
98 729 _l
_cl}_d
/R{{695 0 98 0 666 729 _sc
444 342 _m
465 334 486 319 506 296 _c
526 272 546 240 566 199 _c
666 0 _l
560 0 _l
467 187 _l
443 235 419 268 397 284 _c
374 300 343 308 304 308 _c
197 308 _l
197 0 _l
98 0 _l
98 729 _l
321 729 _l
404 729 466 711 507 677 _c
548 642 569 589 569 519 _c
569 473 558 434 537 404 _c
515 374 484 353 444 342 _c
197 648 _m
197 389 _l
321 389 _l
}_e{368 389 404 400 428 422 _c
452 444 465 476 465 519 _c
465 561 452 593 428 615 _c
404 637 368 648 321 648 _c
197 648 _l
_cl}_e}_d
/S{{635 0 66 -13 579 742 _sc
535 705 _m
535 609 _l
497 627 462 640 429 649 _c
395 657 363 662 333 662 _c
279 662 237 651 208 631 _c
179 610 165 580 165 542 _c
165 510 174 485 194 469 _c
213 452 250 439 304 429 _c
364 417 _l
437 403 491 378 526 343 _c
561 307 579 260 579 201 _c
579 130 555 77 508 41 _c
460 5 391 -13 300 -13 _c
265 -13 228 -9 189 -2 _c
}_e{150 5 110 16 69 32 _c
69 134 _l
109 111 148 94 186 83 _c
224 71 262 66 300 66 _c
356 66 399 77 430 99 _c
460 121 476 152 476 194 _c
476 230 465 258 443 278 _c
421 298 385 313 335 323 _c
275 335 _l
201 349 148 372 115 404 _c
82 435 66 478 66 534 _c
66 598 88 649 134 686 _c
179 723 242 742 322 742 _c
356 742 390 739 426 733 _c
461 727 497 717 535 705 _c
}_e{_cl}_e}_d
/T{611 0 -2 0 614 729 _sc
-2 729 _m
614 729 _l
614 646 _l
355 646 _l
355 0 _l
256 0 _l
256 646 _l
-2 646 _l
-2 729 _l
_cl}_d
/bracketleft{390 0 86 -131 293 760 _sc
86 760 _m
293 760 _l
293 690 _l
176 690 _l
176 -61 _l
293 -61 _l
293 -131 _l
86 -131 _l
86 760 _l
_cl}_d
/bracketright{390 0 97 -131 304 760 _sc
304 760 _m
304 -131 _l
97 -131 _l
97 -61 _l
214 -61 _l
214 690 _l
97 690 _l
97 760 _l
304 760 _l
_cl}_d
/underscore{500 0 -9 -235 510 -165 _sc
510 -165 _m
510 -235 _l
-9 -235 _l
-9 -165 _l
510 -165 _l
_cl}_d
/a{{613 0 60 -13 522 560 _sc
343 275 _m
270 275 220 266 192 250 _c
164 233 150 205 150 165 _c
150 133 160 107 181 89 _c
202 70 231 61 267 61 _c
317 61 357 78 387 114 _c
417 149 432 196 432 255 _c
432 275 _l
343 275 _l
522 312 _m
522 0 _l
432 0 _l
432 83 _l
411 49 385 25 355 10 _c
325 -5 287 -13 243 -13 _c
187 -13 142 2 109 33 _c
76 64 60 106 60 159 _c
}_e{60 220 80 266 122 298 _c
163 329 224 345 306 345 _c
432 345 _l
432 354 _l
432 395 418 427 391 450 _c
364 472 326 484 277 484 _c
245 484 215 480 185 472 _c
155 464 127 453 100 439 _c
100 522 _l
132 534 164 544 195 550 _c
226 556 256 560 286 560 _c
365 560 424 539 463 498 _c
502 457 522 395 522 312 _c
_cl}_e}_d
/b{{635 0 91 -13 580 760 _sc
487 273 _m
487 339 473 390 446 428 _c
418 466 381 485 334 485 _c
286 485 249 466 222 428 _c
194 390 181 339 181 273 _c
181 207 194 155 222 117 _c
249 79 286 61 334 61 _c
381 61 418 79 446 117 _c
473 155 487 207 487 273 _c
181 464 _m
199 496 223 520 252 536 _c
281 552 316 560 356 560 _c
422 560 476 533 518 481 _c
559 428 580 359 580 273 _c
}_e{580 187 559 117 518 65 _c
476 13 422 -13 356 -13 _c
316 -13 281 -5 252 10 _c
223 25 199 49 181 82 _c
181 0 _l
91 0 _l
91 760 _l
181 760 _l
181 464 _l
_cl}_e}_d
/c{{550 0 55 -13 488 560 _sc
488 526 _m
488 442 _l
462 456 437 466 411 473 _c
385 480 360 484 334 484 _c
276 484 230 465 198 428 _c
166 391 150 339 150 273 _c
150 206 166 154 198 117 _c
230 80 276 62 334 62 _c
360 62 385 65 411 72 _c
437 79 462 90 488 104 _c
488 21 _l
462 9 436 0 410 -5 _c
383 -10 354 -13 324 -13 _c
242 -13 176 12 128 64 _c
}_e{79 115 55 185 55 273 _c
55 362 79 432 128 483 _c
177 534 244 560 330 560 _c
358 560 385 557 411 551 _c
437 545 463 537 488 526 _c
_cl}_e}_d
/d{{635 0 55 -13 544 760 _sc
454 464 _m
454 760 _l
544 760 _l
544 0 _l
454 0 _l
454 82 _l
435 49 411 25 382 10 _c
353 -5 319 -13 279 -13 _c
213 -13 159 13 117 65 _c
75 117 55 187 55 273 _c
55 359 75 428 117 481 _c
159 533 213 560 279 560 _c
319 560 353 552 382 536 _c
411 520 435 496 454 464 _c
148 273 _m
148 207 161 155 188 117 _c
215 79 253 61 301 61 _c
}_e{348 61 385 79 413 117 _c
440 155 454 207 454 273 _c
454 339 440 390 413 428 _c
385 466 348 485 301 485 _c
253 485 215 466 188 428 _c
161 390 148 339 148 273 _c
_cl}_e}_d
/e{{615 0 55 -13 562 560 _sc
562 296 _m
562 252 _l
149 252 _l
153 190 171 142 205 110 _c
238 78 284 62 344 62 _c
378 62 412 66 444 74 _c
476 82 509 95 541 113 _c
541 28 _l
509 14 476 3 442 -3 _c
408 -9 373 -13 339 -13 _c
251 -13 182 12 131 62 _c
80 112 55 181 55 268 _c
55 357 79 428 127 481 _c
175 533 241 560 323 560 _c
397 560 455 536 498 489 _c
}_e{540 441 562 377 562 296 _c
472 322 _m
471 371 457 410 431 440 _c
404 469 368 484 324 484 _c
274 484 234 469 204 441 _c
174 413 156 373 152 322 _c
472 322 _l
_cl}_e}_d
/f{352 0 23 0 371 760 _sc
371 760 _m
371 685 _l
285 685 _l
253 685 230 678 218 665 _c
205 652 199 629 199 595 _c
199 547 _l
347 547 _l
347 477 _l
199 477 _l
199 0 _l
109 0 _l
109 477 _l
23 477 _l
23 547 _l
109 547 _l
109 585 _l
109 645 123 690 151 718 _c
179 746 224 760 286 760 _c
371 760 _l
_cl}_d
/g{{635 0 55 -207 544 560 _sc
454 280 _m
454 344 440 395 414 431 _c
387 467 349 485 301 485 _c
253 485 215 467 188 431 _c
161 395 148 344 148 280 _c
148 215 161 165 188 129 _c
215 93 253 75 301 75 _c
349 75 387 93 414 129 _c
440 165 454 215 454 280 _c
544 68 _m
544 -24 523 -93 482 -139 _c
440 -184 377 -207 292 -207 _c
260 -207 231 -204 203 -200 _c
175 -195 147 -188 121 -178 _c
}_e{121 -91 _l
147 -105 173 -115 199 -122 _c
225 -129 251 -133 278 -133 _c
336 -133 380 -117 410 -87 _c
439 -56 454 -10 454 52 _c
454 96 _l
435 64 411 40 382 24 _c
353 8 319 0 279 0 _c
211 0 157 25 116 76 _c
75 127 55 195 55 280 _c
55 364 75 432 116 483 _c
157 534 211 560 279 560 _c
319 560 353 552 382 536 _c
411 520 435 496 454 464 _c
454 547 _l
544 547 _l
}_e{544 68 _l
_cl}_e}_d
/h{634 0 91 0 549 760 _sc
549 330 _m
549 0 _l
459 0 _l
459 327 _l
459 379 448 417 428 443 _c
408 469 378 482 338 482 _c
289 482 251 466 223 435 _c
195 404 181 362 181 309 _c
181 0 _l
91 0 _l
91 760 _l
181 760 _l
181 462 _l
202 494 227 519 257 535 _c
286 551 320 560 358 560 _c
420 560 468 540 500 501 _c
532 462 549 405 549 330 _c
_cl}_d
/i{278 0 94 0 184 760 _sc
94 547 _m
184 547 _l
184 0 _l
94 0 _l
94 547 _l
94 760 _m
184 760 _l
184 646 _l
94 646 _l
94 760 _l
_cl}_d
/l{278 0 94 0 184 760 _sc
94 760 _m
184 760 _l
184 0 _l
94 0 _l
94 760 _l
_cl}_d
/m{{974 0 91 0 889 560 _sc
520 442 _m
542 482 569 511 600 531 _c
631 550 668 560 711 560 _c
767 560 811 540 842 500 _c
873 460 889 403 889 330 _c
889 0 _l
799 0 _l
799 327 _l
799 379 789 418 771 444 _c
752 469 724 482 686 482 _c
639 482 602 466 575 435 _c
548 404 535 362 535 309 _c
535 0 _l
445 0 _l
445 327 _l
445 379 435 418 417 444 _c
398 469 369 482 331 482 _c
}_e{285 482 248 466 221 435 _c
194 404 181 362 181 309 _c
181 0 _l
91 0 _l
91 547 _l
181 547 _l
181 462 _l
201 495 226 520 255 536 _c
283 552 317 560 357 560 _c
397 560 430 550 458 530 _c
486 510 506 480 520 442 _c
_cl}_e}_d
/n{634 0 91 0 549 560 _sc
549 330 _m
549 0 _l
459 0 _l
459 327 _l
459 379 448 417 428 443 _c
408 469 378 482 338 482 _c
289 482 251 466 223 435 _c
195 404 181 362 181 309 _c
181 0 _l
91 0 _l
91 547 _l
181 547 _l
181 462 _l
202 494 227 519 257 535 _c
286 551 320 560 358 560 _c
420 560 468 540 500 501 _c
532 462 549 405 549 330 _c
_cl}_d
/o{612 0 55 -13 557 560 _sc
306 484 _m
258 484 220 465 192 427 _c
164 389 150 338 150 273 _c
150 207 163 156 191 118 _c
219 80 257 62 306 62 _c
354 62 392 80 420 118 _c
448 156 462 207 462 273 _c
462 337 448 389 420 427 _c
392 465 354 484 306 484 _c
306 560 _m
384 560 445 534 490 484 _c
534 433 557 363 557 273 _c
557 183 534 113 490 63 _c
445 12 384 -13 306 -13 _c
227 -13 165 12 121 63 _c
77 113 55 183 55 273 _c
55 363 77 433 121 484 _c
165 534 227 560 306 560 _c
_cl}_d
/p{{635 0 91 -207 580 560 _sc
181 82 _m
181 -207 _l
91 -207 _l
91 547 _l
181 547 _l
181 464 _l
199 496 223 520 252 536 _c
281 552 316 560 356 560 _c
422 560 476 533 518 481 _c
559 428 580 359 580 273 _c
580 187 559 117 518 65 _c
476 13 422 -13 356 -13 _c
316 -13 281 -5 252 10 _c
223 25 199 49 181 82 _c
487 273 _m
487 339 473 390 446 428 _c
418 466 381 485 334 485 _c
}_e{286 485 249 466 222 428 _c
194 390 181 339 181 273 _c
181 207 194 155 222 117 _c
249 79 286 61 334 61 _c
381 61 418 79 446 117 _c
473 155 487 207 487 273 _c
_cl}_e}_d
/r{411 0 91 0 411 560 _sc
411 463 _m
401 469 390 473 378 476 _c
366 478 353 480 339 480 _c
288 480 249 463 222 430 _c
194 397 181 350 181 288 _c
181 0 _l
91 0 _l
91 547 _l
181 547 _l
181 462 _l
199 495 224 520 254 536 _c
284 552 321 560 365 560 _c
371 560 378 559 386 559 _c
393 558 401 557 411 555 _c
411 463 _l
_cl}_d
/s{{521 0 54 -13 472 560 _sc
443 531 _m
443 446 _l
417 458 391 468 364 475 _c
336 481 308 485 279 485 _c
234 485 200 478 178 464 _c
156 450 145 430 145 403 _c
145 382 153 366 169 354 _c
185 342 217 330 265 320 _c
296 313 _l
360 299 405 279 432 255 _c
458 230 472 195 472 151 _c
472 100 452 60 412 31 _c
372 1 316 -13 246 -13 _c
216 -13 186 -10 154 -5 _c
}_e{122 0 89 8 54 20 _c
54 113 _l
87 95 120 82 152 74 _c
184 65 216 61 248 61 _c
290 61 323 68 346 82 _c
368 96 380 117 380 144 _c
380 168 371 187 355 200 _c
339 213 303 226 247 238 _c
216 245 _l
160 257 119 275 95 299 _c
70 323 58 356 58 399 _c
58 450 76 490 112 518 _c
148 546 200 560 268 560 _c
301 560 332 557 362 552 _c
391 547 418 540 443 531 _c
}_e{_cl}_e}_d
/t{392 0 27 0 368 702 _sc
183 702 _m
183 547 _l
368 547 _l
368 477 _l
183 477 _l
183 180 _l
183 135 189 106 201 94 _c
213 81 238 75 276 75 _c
368 75 _l
368 0 _l
276 0 _l
206 0 158 13 132 39 _c
106 65 93 112 93 180 _c
93 477 _l
27 477 _l
27 547 _l
93 547 _l
93 702 _l
183 702 _l
_cl}_d
/u{634 0 85 -13 543 560 _sc
85 216 _m
85 547 _l
175 547 _l
175 219 _l
175 167 185 129 205 103 _c
225 77 255 64 296 64 _c
344 64 383 79 411 110 _c
439 141 453 183 453 237 _c
453 547 _l
543 547 _l
543 0 _l
453 0 _l
453 84 _l
431 50 405 26 377 10 _c
348 -5 315 -13 277 -13 _c
214 -13 166 6 134 45 _c
101 83 85 140 85 216 _c
311 560 _m
311 560 _l
_cl}_d
/y{592 0 30 -207 562 547 _sc
322 -50 _m
296 -114 271 -157 247 -177 _c
223 -197 191 -207 151 -207 _c
79 -207 _l
79 -132 _l
132 -132 _l
156 -132 175 -126 189 -114 _c
203 -102 218 -75 235 -31 _c
251 9 _l
30 547 _l
125 547 _l
296 119 _l
467 547 _l
562 547 _l
322 -50 _l
_cl}_d
end readonly def

/BuildGlyph
 {exch begin
 CharStrings exch
 2 copy known not{pop /.notdef}if
 true 3 1 roll get exec
 end}_d

/BuildChar {
 1 index /Encoding get exch get
 1 index /BuildGlyph get exec
}_d

FontName currentdict end definefont pop
end
%%EndProlog
mpldict begin
75.6 223.2 translate
460.8 345.6 0 0 clipbox
gsave
0 0 m
460.8 0 l
460.8 345.6 l
0 345.6 l
cl
1.000 setgray
fill
grestore
gsave
68.87 78.834792 m
430.201326 78.834792 l
430.201326 295.104 l
68.87 295.104 l
cl
1.000 setgray
fill
grestore
0.800 setlinewidth
1 setlinejoin
0 setlinecap
[] 0 setdash
0.000 setgray
gsave
/o {
gsave
newpath
translate
0.8 setlinewidth
1 setlinejoin
0 setlinecap
0 0 m
0 -3.5 l

gsave
0.000 setgray
fill
grestore
stroke
grestore
} bind def
74.6406 78.8348 o
grestore
/DejaVuSans findfont
16.000 scalefont
setfont
gsave
74.160036 56.035375 translate
45.000000 rotate
0.000000 0.000000 m /zero glyphshow
grestore
gsave
/o {
gsave
newpath
translate
0.8 setlinewidth
1 setlinejoin
0 setlinecap
0 0 m
0 -3.5 l

gsave
0.000 setgray
fill
grestore
stroke
grestore
} bind def
119.03 78.8348 o
grestore
gsave
111.345984 41.628074 translate
45.000000 rotate
0.000000 0.000000 m /two glyphshow
10.179688 0.000000 m /five glyphshow
20.359375 0.000000 m /zero glyphshow
grestore
gsave
/o {
gsave
newpath
translate
0.8 setlinewidth
1 setlinejoin
0 setlinecap
0 0 m
0 -3.5 l

gsave
0.000 setgray
fill
grestore
stroke
grestore
} bind def
163.42 78.8348 o
grestore
gsave
155.735581 41.628074 translate
45.000000 rotate
0.000000 0.000000 m /five glyphshow
10.179688 0.000000 m /zero glyphshow
20.359375 0.000000 m /zero glyphshow
grestore
gsave
/o {
gsave
newpath
translate
0.8 setlinewidth
1 setlinejoin
0 setlinecap
0 0 m
0 -3.5 l

gsave
0.000 setgray
fill
grestore
stroke
grestore
} bind def
207.809 78.8348 o
grestore
gsave
200.125179 41.628074 translate
45.000000 rotate
0.000000 0.000000 m /seven glyphshow
10.179688 0.000000 m /five glyphshow
20.359375 0.000000 m /zero glyphshow
grestore
gsave
/o {
gsave
newpath
translate
0.8 setlinewidth
1 setlinejoin
0 setlinecap
0 0 m
0 -3.5 l

gsave
0.000 setgray
fill
grestore
stroke
grestore
} bind def
252.199 78.8348 o
grestore
gsave
240.912952 34.424424 translate
45.000000 rotate
0.000000 0.000000 m /one glyphshow
10.179688 0.000000 m /zero glyphshow
20.359375 0.000000 m /zero glyphshow
30.539062 0.000000 m /zero glyphshow
grestore
gsave
/o {
gsave
newpath
translate
0.8 setlinewidth
1 setlinejoin
0 setlinecap
0 0 m
0 -3.5 l

gsave
0.000 setgray
fill
grestore
stroke
grestore
} bind def
296.589 78.8348 o
grestore
gsave
285.302550 34.424424 translate
45.000000 rotate
0.000000 0.000000 m /one glyphshow
10.179688 0.000000 m /two glyphshow
20.359375 0.000000 m /five glyphshow
30.539062 0.000000 m /zero glyphshow
grestore
gsave
/o {
gsave
newpath
translate
0.8 setlinewidth
1 setlinejoin
0 setlinecap
0 0 m
0 -3.5 l

gsave
0.000 setgray
fill
grestore
stroke
grestore
} bind def
340.978 78.8348 o
grestore
gsave
329.692148 34.424424 translate
45.000000 rotate
0.000000 0.000000 m /one glyphshow
10.179688 0.000000 m /five glyphshow
20.359375 0.000000 m /zero glyphshow
30.539062 0.000000 m /zero glyphshow
grestore
gsave
/o {
gsave
newpath
translate
0.8 setlinewidth
1 setlinejoin
0 setlinecap
0 0 m
0 -3.5 l

gsave
0.000 setgray
fill
grestore
stroke
grestore
} bind def
385.368 78.8348 o
grestore
gsave
374.081745 34.424424 translate
45.000000 rotate
0.000000 0.000000 m /one glyphshow
10.179688 0.000000 m /seven glyphshow
20.359375 0.000000 m /five glyphshow
30.539062 0.000000 m /zero glyphshow
grestore
gsave
/o {
gsave
newpath
translate
0.8 setlinewidth
1 setlinejoin
0 setlinecap
0 0 m
0 -3.5 l

gsave
0.000 setgray
fill
grestore
stroke
grestore
} bind def
429.757 78.8348 o
grestore
gsave
418.471343 34.424424 translate
45.000000 rotate
0.000000 0.000000 m /two glyphshow
10.179688 0.000000 m /zero glyphshow
20.359375 0.000000 m /zero glyphshow
30.539062 0.000000 m /zero glyphshow
grestore
gsave
86.316913 15.914834 translate
0.000000 rotate
0.000000 0.000000 m /N glyphshow
11.968750 0.000000 m /u glyphshow
22.109375 0.000000 m /m glyphshow
37.695312 0.000000 m /b glyphshow
47.851562 0.000000 m /e glyphshow
57.695312 0.000000 m /r glyphshow
64.273438 0.000000 m /space glyphshow
69.359375 0.000000 m /o glyphshow
79.148438 0.000000 m /f glyphshow
84.781250 0.000000 m /space glyphshow
89.867188 0.000000 m /R glyphshow
100.984375 0.000000 m /e glyphshow
110.828125 0.000000 m /o glyphshow
120.617188 0.000000 m /c glyphshow
129.414062 0.000000 m /c glyphshow
138.210938 0.000000 m /u glyphshow
148.351562 0.000000 m /r glyphshow
154.929688 0.000000 m /r glyphshow
161.507812 0.000000 m /e glyphshow
171.351562 0.000000 m /d glyphshow
181.507812 0.000000 m /space glyphshow
186.593750 0.000000 m /S glyphshow
196.750000 0.000000 m /t glyphshow
203.023438 0.000000 m /r glyphshow
209.601562 0.000000 m /e glyphshow
219.445312 0.000000 m /a glyphshow
229.250000 0.000000 m /m glyphshow
244.835938 0.000000 m /space glyphshow
249.921875 0.000000 m /I glyphshow
254.640625 0.000000 m /n glyphshow
264.781250 0.000000 m /s glyphshow
273.117188 0.000000 m /t glyphshow
279.390625 0.000000 m /a glyphshow
289.195312 0.000000 m /n glyphshow
299.335938 0.000000 m /c glyphshow
308.132812 0.000000 m /e glyphshow
317.976562 0.000000 m /s glyphshow
grestore
gsave
/o {
gsave
newpath
translate
0.8 setlinewidth
1 setlinejoin
0 setlinecap
0 0 m
-3.5 0 l

gsave
0.000 setgray
fill
grestore
stroke
grestore
} bind def
68.87 88.6652 o
grestore
gsave
51.682500 82.587086 translate
0.000000 rotate
0.000000 0.000000 m /zero glyphshow
grestore
gsave
/o {
gsave
newpath
translate
0.8 setlinewidth
1 setlinejoin
0 setlinecap
0 0 m
-3.5 0 l

gsave
0.000 setgray
fill
grestore
stroke
grestore
} bind def
68.87 127.987 o
grestore
gsave
41.495000 121.908760 translate
0.000000 rotate
0.000000 0.000000 m /two glyphshow
10.179688 0.000000 m /zero glyphshow
grestore
gsave
/o {
gsave
newpath
translate
0.8 setlinewidth
1 setlinejoin
0 setlinecap
0 0 m
-3.5 0 l

gsave
0.000 setgray
fill
grestore
stroke
grestore
} bind def
68.87 167.309 o
grestore
gsave
41.495000 161.230434 translate
0.000000 rotate
0.000000 0.000000 m /four glyphshow
10.179688 0.000000 m /zero glyphshow
grestore
gsave
/o {
gsave
newpath
translate
0.8 setlinewidth
1 setlinejoin
0 setlinecap
0 0 m
-3.5 0 l

gsave
0.000 setgray
fill
grestore
stroke
grestore
} bind def
68.87 206.63 o
grestore
gsave
41.495000 200.552108 translate
0.000000 rotate
0.000000 0.000000 m /six glyphshow
10.179688 0.000000 m /zero glyphshow
grestore
gsave
/o {
gsave
newpath
translate
0.8 setlinewidth
1 setlinejoin
0 setlinecap
0 0 m
-3.5 0 l

gsave
0.000 setgray
fill
grestore
stroke
grestore
} bind def
68.87 245.952 o
grestore
gsave
41.495000 239.873782 translate
0.000000 rotate
0.000000 0.000000 m /eight glyphshow
10.179688 0.000000 m /zero glyphshow
grestore
gsave
/o {
gsave
newpath
translate
0.8 setlinewidth
1 setlinejoin
0 setlinecap
0 0 m
-3.5 0 l

gsave
0.000 setgray
fill
grestore
stroke
grestore
} bind def
68.87 285.274 o
grestore
gsave
31.307500 279.195456 translate
0.000000 rotate
0.000000 0.000000 m /one glyphshow
10.179688 0.000000 m /zero glyphshow
20.359375 0.000000 m /zero glyphshow
grestore
gsave
23.979375 88.102209 translate
90.000000 rotate
0.000000 0.000000 m /S glyphshow
10.156250 0.000000 m /c glyphshow
18.953125 0.000000 m /h glyphshow
29.093750 0.000000 m /e glyphshow
38.937500 0.000000 m /d glyphshow
49.093750 0.000000 m /u glyphshow
59.234375 0.000000 m /l glyphshow
63.679688 0.000000 m /e glyphshow
73.523438 0.000000 m /d glyphshow
83.679688 0.000000 m /space glyphshow
88.765625 0.000000 m /i glyphshow
93.210938 0.000000 m /n glyphshow
103.351562 0.000000 m /s glyphshow
111.687500 0.000000 m /t glyphshow
117.960938 0.000000 m /a glyphshow
127.765625 0.000000 m /n glyphshow
137.906250 0.000000 m /c glyphshow
146.703125 0.000000 m /e glyphshow
156.546875 0.000000 m /s glyphshow
164.882812 0.000000 m /space glyphshow
169.968750 0.000000 m /bracketleft glyphshow
176.210938 0.000000 m /percent glyphshow
191.414062 0.000000 m /bracketright glyphshow
grestore
1.500 setlinewidth
2 setlinecap
0.122 0.467 0.706 setrgbcolor
gsave
361.3 216.3 68.87 78.83 clipbox
85.294151 285.273581 m
90.088228 285.273581 l
94.882304 285.273581 l
99.676381 285.273581 l
103.04999 285.273581 l
104.470457 285.273581 l
109.264534 285.273581 l
110.152326 285.273581 l
114.058611 285.273581 l
115.834194 285.273581 l
118.852687 285.273581 l
123.646764 285.273581 l
126.132581 285.273581 l
128.44084 285.273581 l
128.618399 285.273581 l
133.234917 285.273581 l
138.028993 285.273581 l
141.402603 285.273581 l
142.112836 285.273581 l
142.82307 283.307498 l
147.617147 281.341414 l
152.411223 265.612744 l
154.186807 285.273581 l
157.2053 232.189321 l
158.093092 285.273581 l
161.999376 202.698066 l
166.793453 175.172894 l
166.971011 285.273581 l
171.587529 153.545973 l
174.073347 285.273581 l
176.381606 143.715555 l
179.755215 285.273581 l
190.053602 285.273581 l
192.53942 285.273581 l
205.323624 285.273581 l
206.033857 285.273581 l
218.107828 285.273581 l
222.014112 285.273581 l
230.892032 273.477079 l
237.994368 285.273581 l
243.676236 245.951907 l
253.974623 283.307498 l
256.46044 204.664149 l
269.244645 179.105061 l
269.954878 281.341414 l
282.028849 151.579889 l
285.935133 269.544912 l
294.813053 135.85122 l
301.915389 234.155405 l
307.597257 114.224299 l
317.895644 198.765898 l
320.381461 96.529546 l
333.165665 88.665211 l
333.875899 161.410308 l
345.94987 88.665211 l
349.856154 129.952969 l
365.836409 122.088634 l
381.816665 112.258215 l
397.79692 96.529546 l
413.777175 90.631294 l
stroke
grestore
1.000 setlinewidth
0 setlinecap
gsave
361.3 216.3 68.87 78.83 clipbox
/o {
gsave
newpath
translate
1.0 setlinewidth
1 setlinejoin
0 setlinecap
0 -1.5 m
0.397805 -1.5 0.77937 -1.341951 1.06066 -1.06066 c
1.341951 -0.77937 1.5 -0.397805 1.5 0 c
1.5 0.397805 1.341951 0.77937 1.06066 1.06066 c
0.77937 1.341951 0.397805 1.5 0 1.5 c
-0.397805 1.5 -0.77937 1.341951 -1.06066 1.06066 c
-1.341951 0.77937 -1.5 0.397805 -1.5 0 c
-1.5 -0.397805 -1.341951 -0.77937 -1.06066 -1.06066 c
-0.77937 -1.341951 -0.397805 -1.5 0 -1.5 c
cl

gsave
0.122 0.467 0.706 setrgbcolor
fill
grestore
stroke
grestore
} bind def
85.2942 285.274 o
90.0882 285.274 o
94.8823 285.274 o
99.6764 285.274 o
103.05 285.274 o
104.47 285.274 o
109.265 285.274 o
110.152 285.274 o
114.059 285.274 o
115.834 285.274 o
118.853 285.274 o
123.647 285.274 o
126.133 285.274 o
128.441 285.274 o
128.618 285.274 o
133.235 285.274 o
138.029 285.274 o
141.403 285.274 o
142.113 285.274 o
142.823 283.307 o
147.617 281.341 o
152.411 265.613 o
154.187 285.274 o
157.205 232.189 o
158.093 285.274 o
161.999 202.698 o
166.793 175.173 o
166.971 285.274 o
171.588 153.546 o
174.073 285.274 o
176.382 143.716 o
179.755 285.274 o
190.054 285.274 o
192.539 285.274 o
205.324 285.274 o
206.034 285.274 o
218.108 285.274 o
222.014 285.274 o
230.892 273.477 o
237.994 285.274 o
243.676 245.952 o
253.975 283.307 o
256.46 204.664 o
269.245 179.105 o
269.955 281.341 o
282.029 151.58 o
285.935 269.545 o
294.813 135.851 o
301.915 234.155 o
307.597 114.224 o
317.896 198.766 o
320.381 96.5295 o
333.166 88.6652 o
333.876 161.41 o
345.95 88.6652 o
349.856 129.953 o
365.836 122.089 o
381.817 112.258 o
397.797 96.5295 o
413.777 90.6313 o
grestore
1.500 setlinewidth
2 setlinecap
1.000 0.498 0.055 setrgbcolor
gsave
361.3 216.3 68.87 78.83 clipbox
85.294151 285.273581 m
90.088228 285.273581 l
94.882304 285.273581 l
99.676381 285.273581 l
103.04999 285.273581 l
104.470457 285.273581 l
109.264534 285.273581 l
110.152326 285.273581 l
114.058611 285.273581 l
115.834194 285.273581 l
118.852687 285.273581 l
123.646764 285.273581 l
126.132581 285.273581 l
128.44084 285.273581 l
128.618399 285.273581 l
133.234917 285.273581 l
138.028993 281.341414 l
141.402603 285.273581 l
142.112836 285.273581 l
142.82307 279.37533 l
147.617147 269.544912 l
152.411223 269.544912 l
154.186807 285.273581 l
157.2053 269.544912 l
158.093092 285.273581 l
161.999376 247.917991 l
166.793453 242.01974 l
166.971011 285.273581 l
171.587529 226.29107 l
174.073347 285.273581 l
176.381606 208.596317 l
179.755215 285.273581 l
190.053602 283.307498 l
192.53942 285.273581 l
205.323624 285.273581 l
206.033857 285.273581 l
218.107828 285.273581 l
222.014112 283.307498 l
230.892032 285.273581 l
237.994368 281.341414 l
243.676236 285.273581 l
253.974623 279.37533 l
256.46044 281.341414 l
269.244645 277.409247 l
269.954878 279.37533 l
282.028849 255.782326 l
285.935133 275.443163 l
294.813053 245.951907 l
301.915389 261.680577 l
307.597257 230.223238 l
317.895644 257.74841 l
320.381461 224.324987 l
333.165665 218.426735 l
333.875899 238.087572 l
345.94987 212.528484 l
349.856154 204.664149 l
365.836409 185.003312 l
381.816665 177.138978 l
397.79692 169.274643 l
413.777175 163.376392 l
stroke
grestore
1.000 setlinewidth
0 setlinecap
gsave
361.3 216.3 68.87 78.83 clipbox
/o {
gsave
newpath
translate
1.0 setlinewidth
1 setlinejoin
0 setlinecap
0 -1.5 m
0.397805 -1.5 0.77937 -1.341951 1.06066 -1.06066 c
1.341951 -0.77937 1.5 -0.397805 1.5 0 c
1.5 0.397805 1.341951 0.77937 1.06066 1.06066 c
0.77937 1.341951 0.397805 1.5 0 1.5 c
-0.397805 1.5 -0.77937 1.341951 -1.06066 1.06066 c
-1.341951 0.77937 -1.5 0.397805 -1.5 0 c
-1.5 -0.397805 -1.341951 -0.77937 -1.06066 -1.06066 c
-0.77937 -1.341951 -0.397805 -1.5 0 -1.5 c
cl

gsave
1.000 0.498 0.055 setrgbcolor
fill
grestore
stroke
grestore
} bind def
85.2942 285.274 o
90.0882 285.274 o
94.8823 285.274 o
99.6764 285.274 o
103.05 285.274 o
104.47 285.274 o
109.265 285.274 o
110.152 285.274 o
114.059 285.274 o
115.834 285.274 o
118.853 285.274 o
123.647 285.274 o
126.133 285.274 o
128.441 285.274 o
128.618 285.274 o
133.235 285.274 o
138.029 281.341 o
141.403 285.274 o
142.113 285.274 o
142.823 279.375 o
147.617 269.545 o
152.411 269.545 o
154.187 285.274 o
157.205 269.545 o
158.093 285.274 o
161.999 247.918 o
166.793 242.02 o
166.971 285.274 o
171.588 226.291 o
174.073 285.274 o
176.382 208.596 o
179.755 285.274 o
190.054 283.307 o
192.539 285.274 o
205.324 285.274 o
206.034 285.274 o
218.108 285.274 o
222.014 283.307 o
230.892 285.274 o
237.994 281.341 o
243.676 285.274 o
253.975 279.375 o
256.46 281.341 o
269.245 277.409 o
269.955 279.375 o
282.029 255.782 o
285.935 275.443 o
294.813 245.952 o
301.915 261.681 o
307.597 230.223 o
317.896 257.748 o
320.381 224.325 o
333.166 218.427 o
333.876 238.088 o
345.95 212.528 o
349.856 204.664 o
365.836 185.003 o
381.817 177.139 o
397.797 169.275 o
413.777 163.376 o
grestore
1.500 setlinewidth
2 setlinecap
0.173 0.627 0.173 setrgbcolor
gsave
361.3 216.3 68.87 78.83 clipbox
85.294151 285.273581 m
90.088228 285.273581 l
94.882304 285.273581 l
99.676381 285.273581 l
103.04999 285.273581 l
104.470457 285.273581 l
109.264534 283.307498 l
110.152326 285.273581 l
114.058611 283.307498 l
115.834194 285.273581 l
118.852687 281.341414 l
123.646764 281.341414 l
126.132581 285.273581 l
128.44084 281.341414 l
128.618399 285.273581 l
133.234917 279.37533 l
138.028993 269.544912 l
141.402603 285.273581 l
142.112836 283.307498 l
142.82307 265.612744 l
147.617147 251.850158 l
152.411223 243.985824 l
154.186807 285.273581 l
157.2053 232.189321 l
158.093092 281.341414 l
161.999376 200.731982 l
166.793453 183.037229 l
166.971011 285.273581 l
171.587529 175.172894 l
174.073347 281.341414 l
176.381606 161.410308 l
179.755215 285.273581 l
190.053602 275.443163 l
192.53942 285.273581 l
205.323624 285.273581 l
206.033857 277.409247 l
218.107828 285.273581 l
222.014112 273.477079 l
230.892032 283.307498 l
237.994368 273.477079 l
243.676236 285.273581 l
253.974623 261.680577 l
256.46044 277.409247 l
269.244645 269.544912 l
269.954878 257.74841 l
282.028849 236.121489 l
285.935133 259.714493 l
294.813053 216.460652 l
301.915389 234.155405 l
307.597257 200.731982 l
317.895644 220.392819 l
320.381461 179.105061 l
333.165665 171.240726 l
333.875899 194.833731 l
345.94987 161.410308 l
349.856154 177.138978 l
365.836409 159.444224 l
381.816665 161.410308 l
397.79692 155.512057 l
413.777175 155.512057 l
stroke
grestore
1.000 setlinewidth
0 setlinecap
gsave
361.3 216.3 68.87 78.83 clipbox
/o {
gsave
newpath
translate
1.0 setlinewidth
1 setlinejoin
0 setlinecap
0 -1.5 m
0.397805 -1.5 0.77937 -1.341951 1.06066 -1.06066 c
1.341951 -0.77937 1.5 -0.397805 1.5 0 c
1.5 0.397805 1.341951 0.77937 1.06066 1.06066 c
0.77937 1.341951 0.397805 1.5 0 1.5 c
-0.397805 1.5 -0.77937 1.341951 -1.06066 1.06066 c
-1.341951 0.77937 -1.5 0.397805 -1.5 0 c
-1.5 -0.397805 -1.341951 -0.77937 -1.06066 -1.06066 c
-0.77937 -1.341951 -0.397805 -1.5 0 -1.5 c
cl

gsave
0.173 0.627 0.173 setrgbcolor
fill
grestore
stroke
grestore
} bind def
85.2942 285.274 o
90.0882 285.274 o
94.8823 285.274 o
99.6764 285.274 o
103.05 285.274 o
104.47 285.274 o
109.265 283.307 o
110.152 285.274 o
114.059 283.307 o
115.834 285.274 o
118.853 281.341 o
123.647 281.341 o
126.133 285.274 o
128.441 281.341 o
128.618 285.274 o
133.235 279.375 o
138.029 269.545 o
141.403 285.274 o
142.113 283.307 o
142.823 265.613 o
147.617 251.85 o
152.411 243.986 o
154.187 285.274 o
157.205 232.189 o
158.093 281.341 o
161.999 200.732 o
166.793 183.037 o
166.971 285.274 o
171.588 175.173 o
174.073 281.341 o
176.382 161.41 o
179.755 285.274 o
190.054 275.443 o
192.539 285.274 o
205.324 285.274 o
206.034 277.409 o
218.108 285.274 o
222.014 273.477 o
230.892 283.307 o
237.994 273.477 o
243.676 285.274 o
253.975 261.681 o
256.46 277.409 o
269.245 269.545 o
269.955 257.748 o
282.029 236.121 o
285.935 259.714 o
294.813 216.461 o
301.915 234.155 o
307.597 200.732 o
317.896 220.393 o
320.381 179.105 o
333.166 171.241 o
333.876 194.834 o
345.95 161.41 o
349.856 177.139 o
365.836 159.444 o
381.817 161.41 o
397.797 155.512 o
413.777 155.512 o
grestore
0.800 setlinewidth
0 setlinejoin
2 setlinecap
[] 0 setdash
0.000 setgray
gsave
68.87 78.834792 m
68.87 295.104 l
stroke
grestore
gsave
430.201326 78.834792 m
430.201326 295.104 l
stroke
grestore
gsave
68.87 78.834792 m
430.201326 78.834792 l
stroke
grestore
gsave
68.87 295.104 m
430.201326 295.104 l
stroke
grestore
/DejaVuSans findfont
18.000 scalefont
setfont
gsave
75.582538 321.260250 translate
0.000000 rotate
0.000000 0.000000 m /S glyphshow
11.425781 0.000000 m /c glyphshow
21.322266 0.000000 m /h glyphshow
32.730469 0.000000 m /e glyphshow
43.804688 0.000000 m /d glyphshow
55.230469 0.000000 m /u glyphshow
66.638672 0.000000 m /l glyphshow
71.639648 0.000000 m /a glyphshow
82.669922 0.000000 m /b glyphshow
94.095703 0.000000 m /i glyphshow
99.096680 0.000000 m /l glyphshow
104.097656 0.000000 m /i glyphshow
109.098633 0.000000 m /t glyphshow
116.156250 0.000000 m /y glyphshow
126.808594 0.000000 m /space glyphshow
132.530273 0.000000 m /d glyphshow
143.956055 0.000000 m /e glyphshow
155.030273 0.000000 m /p glyphshow
166.456055 0.000000 m /e glyphshow
177.530273 0.000000 m /n glyphshow
188.938477 0.000000 m /d glyphshow
200.364258 0.000000 m /e glyphshow
211.438477 0.000000 m /n glyphshow
222.846680 0.000000 m /c glyphshow
232.743164 0.000000 m /e glyphshow
243.817383 0.000000 m /space glyphshow
249.539062 0.000000 m /o glyphshow
260.551758 0.000000 m /n glyphshow
271.959961 0.000000 m /space glyphshow
277.681641 0.000000 m /n glyphshow
289.089844 0.000000 m /u glyphshow
300.498047 0.000000 m /m glyphshow
318.032227 0.000000 m /b glyphshow
329.458008 0.000000 m /e glyphshow
340.532227 0.000000 m /r glyphshow
grestore
gsave
139.137226 301.104000 translate
0.000000 rotate
0.000000 0.000000 m /o glyphshow
11.012695 0.000000 m /f glyphshow
17.349609 0.000000 m /space glyphshow
23.071289 0.000000 m /R glyphshow
35.578125 0.000000 m /S glyphshow
47.003906 0.000000 m /I glyphshow
52.312500 0.000000 m /space glyphshow
58.034180 0.000000 m /f glyphshow
64.371094 0.000000 m /o glyphshow
75.383789 0.000000 m /r glyphshow
82.784180 0.000000 m /space glyphshow
88.505859 0.000000 m /s glyphshow
97.883789 0.000000 m /m glyphshow
115.417969 0.000000 m /a glyphshow
126.448242 0.000000 m /l glyphshow
131.449219 0.000000 m /l glyphshow
136.450195 0.000000 m /space glyphshow
142.171875 0.000000 m /t glyphshow
149.229492 0.000000 m /o glyphshow
160.242188 0.000000 m /p glyphshow
171.667969 0.000000 m /o glyphshow
182.680664 0.000000 m /l glyphshow
187.681641 0.000000 m /o glyphshow
198.694336 0.000000 m /g glyphshow
210.120117 0.000000 m /y glyphshow
grestore
1.000 setlinewidth
0 setlinecap
0.800 setgray
gsave
183.935663 86.834792 m
315.135663 86.834792 l
317.268996 86.834792 318.335663 87.901459 318.335663 90.034792 c
318.335663 159.794167 l
318.335663 161.9275 317.268996 162.994167 315.135663 162.994167 c
183.935663 162.994167 l
181.80233 162.994167 180.735663 161.9275 180.735663 159.794167 c
180.735663 90.034792 l
180.735663 87.901459 181.80233 86.834792 183.935663 86.834792 c
cl
gsave
1.000 setgray
fill
grestore
stroke
grestore
1.500 setlinewidth
1 setlinejoin
2 setlinecap
[] 0 setdash
0.122 0.467 0.706 setrgbcolor
gsave
187.135663 150.037917 m
219.135663 150.037917 l
stroke
grestore
1.000 setlinewidth
0 setlinecap
gsave
/o {
gsave
newpath
translate
1.0 setlinewidth
1 setlinejoin
0 setlinecap
0 -1.5 m
0.397805 -1.5 0.77937 -1.341951 1.06066 -1.06066 c
1.341951 -0.77937 1.5 -0.397805 1.5 0 c
1.5 0.397805 1.341951 0.77937 1.06066 1.06066 c
0.77937 1.341951 0.397805 1.5 0 1.5 c
-0.397805 1.5 -0.77937 1.341951 -1.06066 1.06066 c
-1.341951 0.77937 -1.5 0.397805 -1.5 0 c
-1.5 -0.397805 -1.341951 -0.77937 -1.06066 -1.06066 c
-0.77937 -1.341951 -0.397805 -1.5 0 -1.5 c
cl

gsave
0.122 0.467 0.706 setrgbcolor
fill
grestore
stroke
grestore
} bind def
203.136 150.038 o
grestore
0.000 setgray
/DejaVuSans findfont
16.000 scalefont
setfont
gsave
231.935663 144.437917 translate
0.000000 rotate
0.000000 0.000000 m /I glyphshow
4.718750 0.000000 m /L glyphshow
13.632812 0.000000 m /P glyphshow
grestore
1.500 setlinewidth
2 setlinecap
1.000 0.498 0.055 setrgbcolor
gsave
187.135663 126.553542 m
219.135663 126.553542 l
stroke
grestore
1.000 setlinewidth
0 setlinecap
gsave
/o {
gsave
newpath
translate
1.0 setlinewidth
1 setlinejoin
0 setlinecap
0 -1.5 m
0.397805 -1.5 0.77937 -1.341951 1.06066 -1.06066 c
1.341951 -0.77937 1.5 -0.397805 1.5 0 c
1.5 0.397805 1.341951 0.77937 1.06066 1.06066 c
0.77937 1.341951 0.397805 1.5 0 1.5 c
-0.397805 1.5 -0.77937 1.341951 -1.06066 1.06066 c
-1.341951 0.77937 -1.5 0.397805 -1.5 0 c
-1.5 -0.397805 -1.341951 -0.77937 -1.06066 -1.06066 c
-0.77937 -1.341951 -0.397805 -1.5 0 -1.5 c
cl

gsave
1.000 0.498 0.055 setrgbcolor
fill
grestore
stroke
grestore
} bind def
203.136 126.554 o
grestore
0.000 setgray
gsave
231.935663 120.953542 translate
0.000000 rotate
0.000000 0.000000 m /C glyphshow
11.171875 0.000000 m /B glyphshow
22.148438 0.000000 m /J glyphshow
26.867188 0.000000 m /underscore glyphshow
34.867188 0.000000 m /B glyphshow
45.843750 0.000000 m /M glyphshow
59.648438 0.000000 m /underscore glyphshow
67.648438 0.000000 m /D glyphshow
grestore
1.500 setlinewidth
2 setlinecap
0.173 0.627 0.173 setrgbcolor
gsave
187.135663 102.616042 m
219.135663 102.616042 l
stroke
grestore
1.000 setlinewidth
0 setlinecap
gsave
/o {
gsave
newpath
translate
1.0 setlinewidth
1 setlinejoin
0 setlinecap
0 -1.5 m
0.397805 -1.5 0.77937 -1.341951 1.06066 -1.06066 c
1.341951 -0.77937 1.5 -0.397805 1.5 0 c
1.5 0.397805 1.341951 0.77937 1.06066 1.06066 c
0.77937 1.341951 0.397805 1.5 0 1.5 c
-0.397805 1.5 -0.77937 1.341951 -1.06066 1.06066 c
-1.341951 0.77937 -1.5 0.397805 -1.5 0 c
-1.5 -0.397805 -1.341951 -0.77937 -1.06066 -1.06066 c
-0.77937 -1.341951 -0.397805 -1.5 0 -1.5 c
cl

gsave
0.173 0.627 0.173 setrgbcolor
fill
grestore
stroke
grestore
} bind def
203.136 102.616 o
grestore
0.000 setgray
gsave
231.935663 97.016042 translate
0.000000 rotate
0.000000 0.000000 m /E glyphshow
10.109375 0.000000 m /D glyphshow
22.429688 0.000000 m /F glyphshow
31.632812 0.000000 m /underscore glyphshow
39.632812 0.000000 m /M glyphshow
53.437500 0.000000 m /R glyphshow
64.539062 0.000000 m /T glyphshow
grestore

end
showpage
